<mxfile host="Electron" modified="2023-11-09T08:29:22.834Z" agent="Mozilla/5.0 (Windows NT 10.0; Win64; x64) AppleWebKit/537.36 (KHTML, like Gecko) draw.io/22.0.3 Chrome/114.0.5735.289 Electron/25.8.4 Safari/537.36" etag="0pKC6FoFiOJjf2Ew5_N_" version="22.0.3" type="device">
  <diagram name="Страница — 1" id="aasP6al92kTgNYklelx4">
    <mxGraphModel dx="3680" dy="2352" grid="1" gridSize="10" guides="1" tooltips="1" connect="1" arrows="1" fold="1" page="1" pageScale="1" pageWidth="827" pageHeight="1169" math="0" shadow="0">
      <root>
        <mxCell id="0" />
        <mxCell id="1" parent="0" />
        <mxCell id="ik2dCwQF5ZIuM_89za2r-62" value="" style="rounded=0;whiteSpace=wrap;html=1;" parent="1" vertex="1">
          <mxGeometry x="-1505" y="-1150" width="880" height="1130" as="geometry" />
        </mxCell>
        <mxCell id="BguIIfjn84fzUR3U_QyE-1" value="" style="edgeStyle=none;rounded=1;html=1;labelBackgroundColor=none;startArrow=none;startFill=0;startSize=5;endArrow=classicThin;endFill=1;endSize=12;jettySize=auto;orthogonalLoop=1;strokeColor=#B3B3B3;strokeWidth=2;fontFamily=Verdana;fontSize=12;entryX=0;entryY=0.5;entryDx=0;entryDy=0;exitX=1;exitY=0.3333333333333333;exitDx=0;exitDy=0;exitPerimeter=0;" parent="1" target="BguIIfjn84fzUR3U_QyE-8" edge="1">
          <mxGeometry x="0.0147" y="6" relative="1" as="geometry">
            <mxPoint x="-1555" y="-973.333333333333" as="sourcePoint" />
            <mxPoint as="offset" />
          </mxGeometry>
        </mxCell>
        <mxCell id="BguIIfjn84fzUR3U_QyE-8" value="Заказать программу" style="ellipse;whiteSpace=wrap;html=1;rounded=0;shadow=1;comic=0;labelBackgroundColor=none;strokeWidth=1;fontFamily=Verdana;fontSize=12;align=center;" parent="1" vertex="1">
          <mxGeometry x="-1155" y="-1015" width="120" height="70" as="geometry" />
        </mxCell>
        <mxCell id="BguIIfjn84fzUR3U_QyE-47" value="«include»" style="edgeStyle=none;rounded=1;html=1;labelBackgroundColor=none;startArrow=none;startFill=0;startSize=5;endArrow=classicThin;endFill=1;endSize=12;jettySize=auto;orthogonalLoop=1;strokeColor=#B3B3B3;strokeWidth=2;fontFamily=Verdana;fontSize=12;entryX=0;entryY=0;entryDx=0;entryDy=0;exitX=0;exitY=1;exitDx=0;exitDy=0;" parent="1" source="BguIIfjn84fzUR3U_QyE-8" target="BguIIfjn84fzUR3U_QyE-15" edge="1">
          <mxGeometry x="0.0125" y="12" relative="1" as="geometry">
            <mxPoint x="-867.37" y="-1065.0000000000002" as="sourcePoint" />
            <mxPoint x="-787.37" y="-1180" as="targetPoint" />
            <mxPoint as="offset" />
          </mxGeometry>
        </mxCell>
        <mxCell id="BguIIfjn84fzUR3U_QyE-50" value="«include»" style="edgeStyle=none;rounded=1;html=1;labelBackgroundColor=none;startArrow=none;startFill=0;startSize=5;endArrow=classicThin;endFill=1;endSize=12;jettySize=auto;orthogonalLoop=1;strokeColor=#B3B3B3;strokeWidth=2;fontFamily=Verdana;fontSize=12;entryX=0;entryY=0.5;entryDx=0;entryDy=0;exitX=1;exitY=1;exitDx=0;exitDy=0;" parent="1" source="BguIIfjn84fzUR3U_QyE-8" target="BguIIfjn84fzUR3U_QyE-14" edge="1">
          <mxGeometry x="0.0125" y="12" relative="1" as="geometry">
            <mxPoint x="-867.37" y="-1065.0000000000002" as="sourcePoint" />
            <mxPoint x="-757.37" y="-1150" as="targetPoint" />
            <mxPoint as="offset" />
          </mxGeometry>
        </mxCell>
        <mxCell id="BguIIfjn84fzUR3U_QyE-66" value="Остановить разработку" style="ellipse;whiteSpace=wrap;html=1;rounded=0;shadow=1;comic=0;labelBackgroundColor=none;strokeWidth=1;fontFamily=Verdana;fontSize=12;align=center;" parent="1" vertex="1">
          <mxGeometry x="-915" y="-1061" width="120" height="70" as="geometry" />
        </mxCell>
        <mxCell id="BguIIfjn84fzUR3U_QyE-14" value="Составить требования к функциям ПО" style="ellipse;whiteSpace=wrap;html=1;rounded=0;shadow=1;comic=0;labelBackgroundColor=none;strokeWidth=1;fontFamily=Verdana;fontSize=12;align=center;" parent="1" vertex="1">
          <mxGeometry x="-962.3699999999999" y="-930" width="120" height="70" as="geometry" />
        </mxCell>
        <mxCell id="BguIIfjn84fzUR3U_QyE-15" value="Установить&lt;br&gt;сроки" style="ellipse;whiteSpace=wrap;html=1;rounded=0;shadow=1;comic=0;labelBackgroundColor=none;strokeWidth=1;fontFamily=Verdana;fontSize=12;align=center;" parent="1" vertex="1">
          <mxGeometry x="-1117.37" y="-830" width="120" height="70" as="geometry" />
        </mxCell>
        <mxCell id="BguIIfjn84fzUR3U_QyE-67" value="" style="edgeStyle=none;rounded=1;html=1;labelBackgroundColor=none;startArrow=none;startFill=0;startSize=5;endArrow=classicThin;endFill=1;endSize=12;jettySize=auto;orthogonalLoop=1;strokeColor=#B3B3B3;strokeWidth=2;fontFamily=Verdana;fontSize=12;entryX=0;entryY=0.5;entryDx=0;entryDy=0;exitX=1;exitY=0.3333333333333333;exitDx=0;exitDy=0;exitPerimeter=0;" parent="1" target="BguIIfjn84fzUR3U_QyE-66" edge="1">
          <mxGeometry x="0.0147" y="6" relative="1" as="geometry">
            <mxPoint x="-1555" y="-973.333333333333" as="sourcePoint" />
            <mxPoint as="offset" />
            <mxPoint x="-1167.37" y="-985" as="targetPoint" />
            <Array as="points">
              <mxPoint x="-1300" y="-1026" />
            </Array>
          </mxGeometry>
        </mxCell>
        <mxCell id="BguIIfjn84fzUR3U_QyE-69" value="" style="edgeStyle=none;rounded=1;html=1;labelBackgroundColor=none;startArrow=none;startFill=0;startSize=5;endArrow=classicThin;endFill=1;endSize=12;jettySize=auto;orthogonalLoop=1;strokeColor=#B3B3B3;strokeWidth=2;fontFamily=Verdana;fontSize=12;entryX=0;entryY=0;entryDx=0;entryDy=0;exitX=1;exitY=0.3333333333333333;exitDx=0;exitDy=0;exitPerimeter=0;" parent="1" target="ik2dCwQF5ZIuM_89za2r-46" edge="1">
          <mxGeometry x="0.0147" y="6" relative="1" as="geometry">
            <mxPoint x="-1555" y="-973.333333333333" as="sourcePoint" />
            <mxPoint as="offset" />
            <mxPoint x="-1177.37" y="-795.0000000000002" as="targetPoint" />
          </mxGeometry>
        </mxCell>
        <mxCell id="BguIIfjn84fzUR3U_QyE-70" value="Уточнить требования задачи" style="ellipse;whiteSpace=wrap;html=1;rounded=0;shadow=1;comic=0;labelBackgroundColor=none;strokeWidth=1;fontFamily=Verdana;fontSize=12;align=center;" parent="1" vertex="1">
          <mxGeometry x="-1475" y="-501" width="120" height="70" as="geometry" />
        </mxCell>
        <mxCell id="BguIIfjn84fzUR3U_QyE-71" value="Взять задачу&lt;br&gt;на выполнение" style="ellipse;whiteSpace=wrap;html=1;rounded=0;shadow=1;comic=0;labelBackgroundColor=none;strokeWidth=1;fontFamily=Verdana;fontSize=12;align=center;" parent="1" vertex="1">
          <mxGeometry x="-1475" y="-420" width="120" height="70" as="geometry" />
        </mxCell>
        <mxCell id="BguIIfjn84fzUR3U_QyE-72" value="Выполнить задачу" style="ellipse;whiteSpace=wrap;html=1;rounded=0;shadow=1;comic=0;labelBackgroundColor=none;strokeWidth=1;fontFamily=Verdana;fontSize=12;align=center;" parent="1" vertex="1">
          <mxGeometry x="-1397.37" y="-324" width="120" height="70" as="geometry" />
        </mxCell>
        <mxCell id="BguIIfjn84fzUR3U_QyE-73" value="Сдать&lt;br&gt;задачу" style="ellipse;whiteSpace=wrap;html=1;rounded=0;shadow=1;comic=0;labelBackgroundColor=none;strokeWidth=1;fontFamily=Verdana;fontSize=12;align=center;" parent="1" vertex="1">
          <mxGeometry x="-1485" y="-100" width="120" height="70" as="geometry" />
        </mxCell>
        <mxCell id="BguIIfjn84fzUR3U_QyE-74" value="Исправить замечания по задаче" style="ellipse;whiteSpace=wrap;html=1;rounded=0;shadow=1;comic=0;labelBackgroundColor=none;strokeWidth=1;fontFamily=Verdana;fontSize=12;align=center;" parent="1" vertex="1">
          <mxGeometry x="-1415" y="-200" width="120" height="70" as="geometry" />
        </mxCell>
        <mxCell id="BguIIfjn84fzUR3U_QyE-78" value="" style="edgeStyle=none;rounded=1;html=1;labelBackgroundColor=none;startArrow=none;startFill=0;startSize=5;endArrow=classicThin;endFill=1;endSize=12;jettySize=auto;orthogonalLoop=1;strokeColor=#B3B3B3;strokeWidth=2;fontFamily=Verdana;fontSize=12;entryX=0;entryY=0.5;entryDx=0;entryDy=0;exitX=1;exitY=0.3333333333333333;exitDx=0;exitDy=0;exitPerimeter=0;" parent="1" target="BguIIfjn84fzUR3U_QyE-70" edge="1">
          <mxGeometry x="0.0147" y="6" relative="1" as="geometry">
            <mxPoint x="-1570" y="-333.3333333333335" as="sourcePoint" />
            <mxPoint as="offset" />
            <mxPoint x="-1465" y="-725" as="targetPoint" />
          </mxGeometry>
        </mxCell>
        <mxCell id="BguIIfjn84fzUR3U_QyE-79" value="" style="edgeStyle=none;rounded=1;html=1;labelBackgroundColor=none;startArrow=none;startFill=0;startSize=5;endArrow=classicThin;endFill=1;endSize=12;jettySize=auto;orthogonalLoop=1;strokeColor=#B3B3B3;strokeWidth=2;fontFamily=Verdana;fontSize=12;entryX=0;entryY=0.5;entryDx=0;entryDy=0;exitX=1;exitY=0.3333333333333333;exitDx=0;exitDy=0;exitPerimeter=0;" parent="1" target="BguIIfjn84fzUR3U_QyE-71" edge="1">
          <mxGeometry x="0.0147" y="6" relative="1" as="geometry">
            <mxPoint x="-1570" y="-333.3333333333335" as="sourcePoint" />
            <mxPoint as="offset" />
            <mxPoint x="-1465" y="-495" as="targetPoint" />
          </mxGeometry>
        </mxCell>
        <mxCell id="BguIIfjn84fzUR3U_QyE-80" value="" style="edgeStyle=none;rounded=1;html=1;labelBackgroundColor=none;startArrow=none;startFill=0;startSize=5;endArrow=classicThin;endFill=1;endSize=12;jettySize=auto;orthogonalLoop=1;strokeColor=#B3B3B3;strokeWidth=2;fontFamily=Verdana;fontSize=12;entryX=0;entryY=0.5;entryDx=0;entryDy=0;exitX=1;exitY=0.3333333333333333;exitDx=0;exitDy=0;exitPerimeter=0;" parent="1" target="BguIIfjn84fzUR3U_QyE-72" edge="1">
          <mxGeometry x="0.0147" y="6" relative="1" as="geometry">
            <mxPoint x="-1570" y="-333.3333333333335" as="sourcePoint" />
            <mxPoint as="offset" />
            <mxPoint x="-1465" y="-405" as="targetPoint" />
          </mxGeometry>
        </mxCell>
        <mxCell id="BguIIfjn84fzUR3U_QyE-81" value="" style="edgeStyle=none;rounded=1;html=1;labelBackgroundColor=none;startArrow=none;startFill=0;startSize=5;endArrow=classicThin;endFill=1;endSize=12;jettySize=auto;orthogonalLoop=1;strokeColor=#B3B3B3;strokeWidth=2;fontFamily=Verdana;fontSize=12;entryX=0;entryY=0.5;entryDx=0;entryDy=0;exitX=1;exitY=0.3333333333333333;exitDx=0;exitDy=0;exitPerimeter=0;" parent="1" target="BguIIfjn84fzUR3U_QyE-73" edge="1">
          <mxGeometry x="0.0147" y="6" relative="1" as="geometry">
            <mxPoint x="-1570" y="-333.3333333333335" as="sourcePoint" />
            <mxPoint as="offset" />
            <mxPoint x="-1465" y="-315" as="targetPoint" />
          </mxGeometry>
        </mxCell>
        <mxCell id="BguIIfjn84fzUR3U_QyE-82" value="" style="edgeStyle=none;rounded=1;html=1;labelBackgroundColor=none;startArrow=none;startFill=0;startSize=5;endArrow=classicThin;endFill=1;endSize=12;jettySize=auto;orthogonalLoop=1;strokeColor=#B3B3B3;strokeWidth=2;fontFamily=Verdana;fontSize=12;entryX=0;entryY=0.5;entryDx=0;entryDy=0;exitX=1;exitY=0.3333333333333333;exitDx=0;exitDy=0;exitPerimeter=0;" parent="1" target="BguIIfjn84fzUR3U_QyE-74" edge="1">
          <mxGeometry x="0.0147" y="6" relative="1" as="geometry">
            <mxPoint x="-1570" y="-333.3333333333335" as="sourcePoint" />
            <mxPoint as="offset" />
            <mxPoint x="-1465" y="-315" as="targetPoint" />
          </mxGeometry>
        </mxCell>
        <mxCell id="BguIIfjn84fzUR3U_QyE-107" value="Проверить&lt;br&gt;статус&lt;br&gt;функции" style="ellipse;whiteSpace=wrap;html=1;rounded=0;shadow=1;comic=0;labelBackgroundColor=none;strokeWidth=1;fontFamily=Verdana;fontSize=12;align=center;" parent="1" vertex="1">
          <mxGeometry x="-1277.37" y="-900" width="120" height="70" as="geometry" />
        </mxCell>
        <mxCell id="BguIIfjn84fzUR3U_QyE-85" value="Обсудить программу с заказчиком" style="ellipse;whiteSpace=wrap;html=1;rounded=0;shadow=1;comic=0;labelBackgroundColor=none;strokeWidth=1;fontFamily=Verdana;fontSize=12;align=center;direction=west;" parent="1" vertex="1">
          <mxGeometry x="-785" y="-660" width="120" height="70" as="geometry" />
        </mxCell>
        <mxCell id="BguIIfjn84fzUR3U_QyE-86" value="Проверить выполненные задачи" style="ellipse;whiteSpace=wrap;html=1;rounded=0;shadow=1;comic=0;labelBackgroundColor=none;strokeWidth=1;fontFamily=Verdana;fontSize=12;align=center;direction=west;" parent="1" vertex="1">
          <mxGeometry x="-840" y="-179" width="120" height="70" as="geometry" />
        </mxCell>
        <mxCell id="BguIIfjn84fzUR3U_QyE-87" value="Декомпозировать функцию на задачи" style="ellipse;whiteSpace=wrap;html=1;rounded=0;shadow=1;comic=0;labelBackgroundColor=none;strokeWidth=1;fontFamily=Verdana;fontSize=12;align=center;direction=west;" parent="1" vertex="1">
          <mxGeometry x="-885" y="-430" width="120" height="70" as="geometry" />
        </mxCell>
        <mxCell id="BguIIfjn84fzUR3U_QyE-89" value="" style="edgeStyle=none;rounded=1;html=1;labelBackgroundColor=none;startArrow=none;startFill=0;startSize=5;endArrow=classicThin;endFill=1;endSize=12;jettySize=auto;orthogonalLoop=1;strokeColor=#B3B3B3;strokeWidth=2;fontFamily=Verdana;fontSize=12;entryX=0;entryY=0.5;entryDx=0;entryDy=0;exitX=1;exitY=0.3333333333333333;exitDx=0;exitDy=0;exitPerimeter=0;" parent="1" target="BguIIfjn84fzUR3U_QyE-85" edge="1">
          <mxGeometry x="0.0147" y="6" relative="1" as="geometry">
            <mxPoint x="-580" y="-373.33333333333326" as="sourcePoint" />
            <mxPoint as="offset" />
            <mxPoint x="-1275" y="-585" as="targetPoint" />
          </mxGeometry>
        </mxCell>
        <mxCell id="BguIIfjn84fzUR3U_QyE-90" value="" style="edgeStyle=none;rounded=1;html=1;labelBackgroundColor=none;startArrow=none;startFill=0;startSize=5;endArrow=classicThin;endFill=1;endSize=12;jettySize=auto;orthogonalLoop=1;strokeColor=#B3B3B3;strokeWidth=2;fontFamily=Verdana;fontSize=12;entryX=0;entryY=0.5;entryDx=0;entryDy=0;exitX=1;exitY=0.3333333333333333;exitDx=0;exitDy=0;exitPerimeter=0;" parent="1" target="BguIIfjn84fzUR3U_QyE-86" edge="1">
          <mxGeometry x="0.0147" y="6" relative="1" as="geometry">
            <mxPoint x="-580" y="-373.33333333333326" as="sourcePoint" />
            <mxPoint as="offset" />
            <mxPoint x="-1275" y="-495" as="targetPoint" />
          </mxGeometry>
        </mxCell>
        <mxCell id="BguIIfjn84fzUR3U_QyE-91" value="" style="edgeStyle=none;rounded=1;html=1;labelBackgroundColor=none;startArrow=none;startFill=0;startSize=5;endArrow=classicThin;endFill=1;endSize=12;jettySize=auto;orthogonalLoop=1;strokeColor=#B3B3B3;strokeWidth=2;fontFamily=Verdana;fontSize=12;entryX=0;entryY=0.5;entryDx=0;entryDy=0;exitX=1;exitY=0.3333333333333333;exitDx=0;exitDy=0;exitPerimeter=0;" parent="1" target="BguIIfjn84fzUR3U_QyE-87" edge="1">
          <mxGeometry x="0.0147" y="6" relative="1" as="geometry">
            <mxPoint x="-580" y="-373.33333333333326" as="sourcePoint" />
            <mxPoint as="offset" />
            <mxPoint x="-1275" y="-405" as="targetPoint" />
          </mxGeometry>
        </mxCell>
        <mxCell id="BguIIfjn84fzUR3U_QyE-92" value="" style="edgeStyle=none;rounded=1;html=1;labelBackgroundColor=none;startArrow=none;startFill=0;startSize=5;endArrow=classicThin;endFill=1;endSize=12;jettySize=auto;orthogonalLoop=1;strokeColor=#B3B3B3;strokeWidth=2;fontFamily=Verdana;fontSize=12;entryX=0;entryY=0.5;entryDx=0;entryDy=0;exitX=1;exitY=0.3333333333333333;exitDx=0;exitDy=0;exitPerimeter=0;" parent="1" target="BguIIfjn84fzUR3U_QyE-88" edge="1">
          <mxGeometry x="0.0147" y="6" relative="1" as="geometry">
            <mxPoint x="-580" y="-373.33333333333326" as="sourcePoint" />
            <mxPoint as="offset" />
            <mxPoint x="-1275" y="-405" as="targetPoint" />
          </mxGeometry>
        </mxCell>
        <mxCell id="BguIIfjn84fzUR3U_QyE-93" value="Согласовать цену" style="ellipse;whiteSpace=wrap;html=1;rounded=0;shadow=1;comic=0;labelBackgroundColor=none;strokeWidth=1;fontFamily=Verdana;fontSize=12;align=center;direction=west;" parent="1" vertex="1">
          <mxGeometry x="-1025" y="-630" width="120" height="70" as="geometry" />
        </mxCell>
        <mxCell id="BguIIfjn84fzUR3U_QyE-48" value="«include»" style="edgeStyle=none;rounded=1;html=1;labelBackgroundColor=none;startArrow=none;startFill=0;startSize=5;endArrow=classicThin;endFill=1;endSize=12;jettySize=auto;orthogonalLoop=1;strokeColor=#B3B3B3;strokeWidth=2;fontFamily=Verdana;fontSize=12;entryX=0;entryY=0.5;entryDx=0;entryDy=0;exitX=1;exitY=0;exitDx=0;exitDy=0;" parent="1" source="BguIIfjn84fzUR3U_QyE-85" target="BguIIfjn84fzUR3U_QyE-93" edge="1">
          <mxGeometry x="0.0125" y="12" relative="1" as="geometry">
            <mxPoint x="-690" y="-1170" as="sourcePoint" />
            <mxPoint x="-930" y="-859.9999999999998" as="targetPoint" />
            <mxPoint as="offset" />
          </mxGeometry>
        </mxCell>
        <mxCell id="BguIIfjn84fzUR3U_QyE-94" value="Согласовать сроки" style="ellipse;whiteSpace=wrap;html=1;rounded=0;shadow=1;comic=0;labelBackgroundColor=none;strokeWidth=1;fontFamily=Verdana;fontSize=12;align=center;direction=west;" parent="1" vertex="1">
          <mxGeometry x="-1035" y="-710" width="120" height="70" as="geometry" />
        </mxCell>
        <mxCell id="BguIIfjn84fzUR3U_QyE-95" value="«include»" style="edgeStyle=none;rounded=1;html=1;labelBackgroundColor=none;startArrow=none;startFill=0;startSize=5;endArrow=classicThin;endFill=1;endSize=12;jettySize=auto;orthogonalLoop=1;strokeColor=#B3B3B3;strokeWidth=2;fontFamily=Verdana;fontSize=12;entryX=0;entryY=0.5;entryDx=0;entryDy=0;exitX=1;exitY=1;exitDx=0;exitDy=0;" parent="1" source="BguIIfjn84fzUR3U_QyE-85" target="BguIIfjn84fzUR3U_QyE-94" edge="1">
          <mxGeometry x="0.0125" y="12" relative="1" as="geometry">
            <mxPoint x="-769.9989160788583" y="-619.6300404011181" as="sourcePoint" />
            <mxPoint x="-907.37" y="-645" as="targetPoint" />
            <mxPoint as="offset" />
          </mxGeometry>
        </mxCell>
        <mxCell id="BguIIfjn84fzUR3U_QyE-88" value="Изменить статус выполнения функции" style="ellipse;whiteSpace=wrap;html=1;rounded=0;shadow=1;comic=0;labelBackgroundColor=none;strokeWidth=1;fontFamily=Verdana;fontSize=12;align=center;direction=west;" parent="1" vertex="1">
          <mxGeometry x="-815" y="-525" width="120" height="70" as="geometry" />
        </mxCell>
        <mxCell id="BguIIfjn84fzUR3U_QyE-98" value="Принять задачу" style="ellipse;whiteSpace=wrap;html=1;rounded=0;shadow=1;comic=0;labelBackgroundColor=none;strokeWidth=1;fontFamily=Verdana;fontSize=12;align=center;direction=west;" parent="1" vertex="1">
          <mxGeometry x="-975" y="-100" width="120" height="70" as="geometry" />
        </mxCell>
        <mxCell id="BguIIfjn84fzUR3U_QyE-99" value="«extend»" style="edgeStyle=none;rounded=1;html=1;labelBackgroundColor=none;startArrow=none;startFill=0;startSize=5;endArrow=classicThin;endFill=1;endSize=12;jettySize=auto;orthogonalLoop=1;strokeColor=#B3B3B3;strokeWidth=2;fontFamily=Verdana;fontSize=12;entryX=1;entryY=0.5;entryDx=0;entryDy=0;exitX=0;exitY=0.5;exitDx=0;exitDy=0;" parent="1" source="BguIIfjn84fzUR3U_QyE-101" target="BguIIfjn84fzUR3U_QyE-88" edge="1">
          <mxGeometry x="-0.0762" y="-9" relative="1" as="geometry">
            <mxPoint x="-915.0000000000036" y="-505" as="sourcePoint" />
            <mxPoint x="-1090" y="-375" as="targetPoint" />
            <mxPoint as="offset" />
          </mxGeometry>
        </mxCell>
        <mxCell id="BguIIfjn84fzUR3U_QyE-100" value="«extend»" style="edgeStyle=none;rounded=1;html=1;labelBackgroundColor=none;startArrow=none;startFill=0;startSize=5;endArrow=classicThin;endFill=1;endSize=12;jettySize=auto;orthogonalLoop=1;strokeColor=#B3B3B3;strokeWidth=2;fontFamily=Verdana;fontSize=12;entryX=1;entryY=0;entryDx=0;entryDy=0;exitX=0;exitY=0.5;exitDx=0;exitDy=0;" parent="1" source="BguIIfjn84fzUR3U_QyE-98" target="BguIIfjn84fzUR3U_QyE-86" edge="1">
          <mxGeometry x="0.0125" y="12" relative="1" as="geometry">
            <mxPoint x="-1073" y="-210" as="sourcePoint" />
            <mxPoint x="-1172" y="-170" as="targetPoint" />
            <mxPoint as="offset" />
          </mxGeometry>
        </mxCell>
        <mxCell id="BguIIfjn84fzUR3U_QyE-101" value="Остановить разработку" style="ellipse;whiteSpace=wrap;html=1;rounded=0;shadow=1;comic=0;labelBackgroundColor=none;strokeWidth=1;fontFamily=Verdana;fontSize=12;align=center;direction=west;" parent="1" vertex="1">
          <mxGeometry x="-1145" y="-462" width="120" height="58" as="geometry" />
        </mxCell>
        <mxCell id="BguIIfjn84fzUR3U_QyE-102" value="Написать замечания по задаче" style="ellipse;whiteSpace=wrap;html=1;rounded=0;shadow=1;comic=0;labelBackgroundColor=none;strokeWidth=1;fontFamily=Verdana;fontSize=12;align=center;direction=west;" parent="1" vertex="1">
          <mxGeometry x="-1065" y="-160" width="120" height="70" as="geometry" />
        </mxCell>
        <mxCell id="BguIIfjn84fzUR3U_QyE-103" value="«extend»" style="edgeStyle=none;rounded=1;html=1;labelBackgroundColor=none;startArrow=none;startFill=0;startSize=5;endArrow=classicThin;endFill=1;endSize=12;jettySize=auto;orthogonalLoop=1;strokeColor=#B3B3B3;strokeWidth=2;fontFamily=Verdana;fontSize=12;entryX=1;entryY=0.5;entryDx=0;entryDy=0;exitX=0;exitY=0.5;exitDx=0;exitDy=0;" parent="1" source="BguIIfjn84fzUR3U_QyE-102" target="BguIIfjn84fzUR3U_QyE-86" edge="1">
          <mxGeometry x="0.0125" y="12" relative="1" as="geometry">
            <mxPoint x="-1050" y="-95" as="sourcePoint" />
            <mxPoint x="-1172" y="-120" as="targetPoint" />
            <mxPoint as="offset" />
          </mxGeometry>
        </mxCell>
        <mxCell id="BguIIfjn84fzUR3U_QyE-104" value="«extend»" style="edgeStyle=none;rounded=1;html=1;labelBackgroundColor=none;startArrow=none;startFill=0;startSize=5;endArrow=classicThin;endFill=1;endSize=12;jettySize=auto;orthogonalLoop=1;strokeColor=#B3B3B3;strokeWidth=2;fontFamily=Verdana;fontSize=12;entryX=1;entryY=0.5;entryDx=0;entryDy=0;exitX=1;exitY=0.5;exitDx=0;exitDy=0;" parent="1" source="ik2dCwQF5ZIuM_89za2r-41" target="BguIIfjn84fzUR3U_QyE-88" edge="1">
          <mxGeometry x="-0.0713" y="-9" relative="1" as="geometry">
            <mxPoint x="-1050" y="-208" as="sourcePoint" />
            <mxPoint x="-1034.999999999996" y="-505" as="targetPoint" />
            <mxPoint as="offset" />
          </mxGeometry>
        </mxCell>
        <mxCell id="BguIIfjn84fzUR3U_QyE-110" value="Руководитель&lt;br style=&quot;border-color: var(--border-color);&quot;&gt;разработки" style="shape=umlActor;verticalLabelPosition=bottom;verticalAlign=top;html=1;outlineConnect=0;" parent="1" vertex="1">
          <mxGeometry x="-580" y="-404" width="50" height="80" as="geometry" />
        </mxCell>
        <mxCell id="ik2dCwQF5ZIuM_89za2r-1" value="Авторизоваться" style="ellipse;whiteSpace=wrap;html=1;" parent="1" vertex="1">
          <mxGeometry x="-1485" y="-790" width="120" height="80" as="geometry" />
        </mxCell>
        <mxCell id="ik2dCwQF5ZIuM_89za2r-2" value="Зарегистрироваться" style="ellipse;whiteSpace=wrap;html=1;" parent="1" vertex="1">
          <mxGeometry x="-1330" y="-660" width="120" height="60" as="geometry" />
        </mxCell>
        <mxCell id="ik2dCwQF5ZIuM_89za2r-3" value="Зарегистрировать сотрудника" style="ellipse;whiteSpace=wrap;html=1;" parent="1" vertex="1">
          <mxGeometry x="-975" y="-260" width="120" height="80" as="geometry" />
        </mxCell>
        <mxCell id="ik2dCwQF5ZIuM_89za2r-4" value="" style="edgeStyle=none;rounded=1;html=1;labelBackgroundColor=none;startArrow=none;startFill=0;startSize=5;endArrow=classicThin;endFill=1;endSize=12;jettySize=auto;orthogonalLoop=1;strokeColor=#B3B3B3;strokeWidth=2;fontFamily=Verdana;fontSize=12;exitX=1;exitY=0.3333333333333333;exitDx=0;exitDy=0;exitPerimeter=0;entryX=0.5;entryY=0;entryDx=0;entryDy=0;" parent="1" target="ik2dCwQF5ZIuM_89za2r-1" edge="1">
          <mxGeometry x="0.0147" y="6" relative="1" as="geometry">
            <mxPoint x="-1555" y="-973.333333333333" as="sourcePoint" />
            <mxPoint as="offset" />
            <mxPoint x="-1297.37" y="-820" as="targetPoint" />
            <Array as="points" />
          </mxGeometry>
        </mxCell>
        <mxCell id="ik2dCwQF5ZIuM_89za2r-5" value="" style="edgeStyle=none;rounded=1;html=1;labelBackgroundColor=none;startArrow=none;startFill=0;startSize=5;endArrow=classicThin;endFill=1;endSize=12;jettySize=auto;orthogonalLoop=1;strokeColor=#B3B3B3;strokeWidth=2;fontFamily=Verdana;fontSize=12;entryX=0;entryY=0.5;entryDx=0;entryDy=0;exitX=1;exitY=0.3333333333333333;exitDx=0;exitDy=0;exitPerimeter=0;" parent="1" target="ik2dCwQF5ZIuM_89za2r-1" edge="1">
          <mxGeometry x="0.0147" y="6" relative="1" as="geometry">
            <mxPoint x="-1570" y="-333.3333333333335" as="sourcePoint" />
            <mxPoint as="offset" />
            <mxPoint x="-1465" y="-456" as="targetPoint" />
            <Array as="points">
              <mxPoint x="-1525" y="-750" />
            </Array>
          </mxGeometry>
        </mxCell>
        <mxCell id="ik2dCwQF5ZIuM_89za2r-7" value="" style="edgeStyle=none;rounded=1;html=1;labelBackgroundColor=none;startArrow=none;startFill=0;startSize=5;endArrow=classicThin;endFill=1;endSize=12;jettySize=auto;orthogonalLoop=1;strokeColor=#B3B3B3;strokeWidth=2;fontFamily=Verdana;fontSize=12;entryX=1;entryY=0.5;entryDx=0;entryDy=0;exitX=0;exitY=0.3333333333333333;exitDx=0;exitDy=0;exitPerimeter=0;" parent="1" source="BguIIfjn84fzUR3U_QyE-110" target="ik2dCwQF5ZIuM_89za2r-1" edge="1">
          <mxGeometry x="0.0147" y="6" relative="1" as="geometry">
            <mxPoint x="-555" y="-510" as="sourcePoint" />
            <mxPoint as="offset" />
            <mxPoint x="-710" y="-515" as="targetPoint" />
            <Array as="points">
              <mxPoint x="-615" y="-740" />
            </Array>
          </mxGeometry>
        </mxCell>
        <mxCell id="ik2dCwQF5ZIuM_89za2r-9" value="«include»" style="edgeStyle=none;rounded=1;html=1;labelBackgroundColor=none;startArrow=none;startFill=0;startSize=5;endArrow=classicThin;endFill=1;endSize=12;jettySize=auto;orthogonalLoop=1;strokeColor=#B3B3B3;strokeWidth=2;fontFamily=Verdana;fontSize=12;entryX=1;entryY=1;entryDx=0;entryDy=0;exitX=0;exitY=0.5;exitDx=0;exitDy=0;" parent="1" source="ik2dCwQF5ZIuM_89za2r-2" target="ik2dCwQF5ZIuM_89za2r-1" edge="1">
          <mxGeometry x="0.0055" y="-10" relative="1" as="geometry">
            <mxPoint x="-1452.37" y="-608" as="sourcePoint" />
            <mxPoint x="-1357.37" y="-680" as="targetPoint" />
            <mxPoint as="offset" />
          </mxGeometry>
        </mxCell>
        <mxCell id="ik2dCwQF5ZIuM_89za2r-10" value="" style="edgeStyle=none;rounded=1;html=1;labelBackgroundColor=none;startArrow=none;startFill=0;startSize=5;endArrow=classicThin;endFill=1;endSize=12;jettySize=auto;orthogonalLoop=1;strokeColor=#B3B3B3;strokeWidth=2;fontFamily=Verdana;fontSize=12;entryX=0.8;entryY=0.113;entryDx=0;entryDy=0;entryPerimeter=0;" parent="1" target="ik2dCwQF5ZIuM_89za2r-2" edge="1">
          <mxGeometry x="0.0147" y="6" relative="1" as="geometry">
            <mxPoint x="-585" y="-380" as="sourcePoint" />
            <mxPoint as="offset" />
            <mxPoint x="-1093" y="-752" as="targetPoint" />
            <Array as="points">
              <mxPoint x="-645" y="-720" />
              <mxPoint x="-1185" y="-730" />
            </Array>
          </mxGeometry>
        </mxCell>
        <mxCell id="ik2dCwQF5ZIuM_89za2r-11" value="" style="edgeStyle=none;rounded=1;html=1;labelBackgroundColor=none;startArrow=none;startFill=0;startSize=5;endArrow=classicThin;endFill=1;endSize=12;jettySize=auto;orthogonalLoop=1;strokeColor=#B3B3B3;strokeWidth=2;fontFamily=Verdana;fontSize=12;entryX=0.5;entryY=0;entryDx=0;entryDy=0;exitX=1;exitY=0.3333333333333333;exitDx=0;exitDy=0;exitPerimeter=0;" parent="1" target="ik2dCwQF5ZIuM_89za2r-2" edge="1">
          <mxGeometry x="0.0147" y="6" relative="1" as="geometry">
            <mxPoint x="-1555" y="-973.333333333333" as="sourcePoint" />
            <mxPoint as="offset" />
            <mxPoint x="-1465" y="-456" as="targetPoint" />
            <Array as="points">
              <mxPoint x="-1360" y="-850" />
            </Array>
          </mxGeometry>
        </mxCell>
        <mxCell id="ik2dCwQF5ZIuM_89za2r-12" value="" style="endArrow=none;html=1;rounded=0;exitX=0;exitY=1;exitDx=0;exitDy=0;entryX=0.5;entryY=0;entryDx=0;entryDy=0;" parent="1" source="BguIIfjn84fzUR3U_QyE-8" target="BguIIfjn84fzUR3U_QyE-107" edge="1">
          <mxGeometry width="50" height="50" relative="1" as="geometry">
            <mxPoint x="-1072.37" y="-1160" as="sourcePoint" />
            <mxPoint x="-1022.3699999999999" y="-1210" as="targetPoint" />
          </mxGeometry>
        </mxCell>
        <mxCell id="ik2dCwQF5ZIuM_89za2r-13" value="" style="endArrow=none;html=1;rounded=0;exitX=1;exitY=0;exitDx=0;exitDy=0;entryX=0;entryY=1;entryDx=0;entryDy=0;" parent="1" source="BguIIfjn84fzUR3U_QyE-8" target="BguIIfjn84fzUR3U_QyE-66" edge="1">
          <mxGeometry width="50" height="50" relative="1" as="geometry">
            <mxPoint x="-1107.37" y="-1020" as="sourcePoint" />
            <mxPoint x="-934.37" y="-1140" as="targetPoint" />
          </mxGeometry>
        </mxCell>
        <mxCell id="ik2dCwQF5ZIuM_89za2r-14" value="" style="edgeStyle=none;rounded=1;html=1;labelBackgroundColor=none;startArrow=none;startFill=0;startSize=5;endArrow=classicThin;endFill=1;endSize=12;jettySize=auto;orthogonalLoop=1;strokeColor=#B3B3B3;strokeWidth=2;fontFamily=Verdana;fontSize=12;entryX=1;entryY=1;entryDx=0;entryDy=0;" parent="1" target="ik2dCwQF5ZIuM_89za2r-3" edge="1">
          <mxGeometry x="0.0147" y="6" relative="1" as="geometry">
            <mxPoint x="-585" y="-370" as="sourcePoint" />
            <mxPoint as="offset" />
            <mxPoint x="-710" y="-515" as="targetPoint" />
          </mxGeometry>
        </mxCell>
        <mxCell id="ik2dCwQF5ZIuM_89za2r-15" value="" style="endArrow=none;html=1;rounded=0;entryX=0.5;entryY=1;entryDx=0;entryDy=0;exitX=0.5;exitY=1;exitDx=0;exitDy=0;" parent="1" source="BguIIfjn84fzUR3U_QyE-8" target="BguIIfjn84fzUR3U_QyE-85" edge="1">
          <mxGeometry width="50" height="50" relative="1" as="geometry">
            <mxPoint x="-1355" y="-1100" as="sourcePoint" />
            <mxPoint x="-945" y="-890" as="targetPoint" />
            <Array as="points" />
          </mxGeometry>
        </mxCell>
        <mxCell id="ik2dCwQF5ZIuM_89za2r-19" value="" style="endArrow=none;html=1;rounded=0;entryX=0.5;entryY=1;entryDx=0;entryDy=0;" parent="1" source="BguIIfjn84fzUR3U_QyE-87" target="BguIIfjn84fzUR3U_QyE-14" edge="1">
          <mxGeometry width="50" height="50" relative="1" as="geometry">
            <mxPoint x="-955" y="-860" as="sourcePoint" />
            <mxPoint x="-905" y="-910" as="targetPoint" />
            <Array as="points" />
          </mxGeometry>
        </mxCell>
        <mxCell id="ik2dCwQF5ZIuM_89za2r-21" value="Отправить задачу&lt;br&gt;в разработку" style="ellipse;whiteSpace=wrap;html=1;" parent="1" vertex="1">
          <mxGeometry x="-1065" y="-360" width="120" height="70" as="geometry" />
        </mxCell>
        <mxCell id="ik2dCwQF5ZIuM_89za2r-22" value="" style="edgeStyle=none;rounded=1;html=1;labelBackgroundColor=none;startArrow=none;startFill=0;startSize=5;endArrow=classicThin;endFill=1;endSize=12;jettySize=auto;orthogonalLoop=1;strokeColor=#B3B3B3;strokeWidth=2;fontFamily=Verdana;fontSize=12;entryX=1;entryY=0.5;entryDx=0;entryDy=0;exitX=0;exitY=0.3333333333333333;exitDx=0;exitDy=0;exitPerimeter=0;" parent="1" source="BguIIfjn84fzUR3U_QyE-110" target="ik2dCwQF5ZIuM_89za2r-21" edge="1">
          <mxGeometry x="0.0147" y="6" relative="1" as="geometry">
            <mxPoint x="-765" y="-330" as="sourcePoint" />
            <mxPoint as="offset" />
            <mxPoint x="-710" y="-386" as="targetPoint" />
            <Array as="points" />
          </mxGeometry>
        </mxCell>
        <mxCell id="ik2dCwQF5ZIuM_89za2r-23" value="" style="endArrow=none;html=1;rounded=0;entryX=1;entryY=0.5;entryDx=0;entryDy=0;exitX=1;exitY=0;exitDx=0;exitDy=0;" parent="1" source="ik2dCwQF5ZIuM_89za2r-21" target="BguIIfjn84fzUR3U_QyE-87" edge="1">
          <mxGeometry width="50" height="50" relative="1" as="geometry">
            <mxPoint x="-1125" y="-340" as="sourcePoint" />
            <mxPoint x="-1075" y="-390" as="targetPoint" />
          </mxGeometry>
        </mxCell>
        <mxCell id="ik2dCwQF5ZIuM_89za2r-25" value="" style="endArrow=none;html=1;rounded=0;entryX=1;entryY=0.5;entryDx=0;entryDy=0;exitX=1;exitY=0.5;exitDx=0;exitDy=0;" parent="1" source="BguIIfjn84fzUR3U_QyE-102" target="BguIIfjn84fzUR3U_QyE-73" edge="1">
          <mxGeometry width="50" height="50" relative="1" as="geometry">
            <mxPoint x="-1245" y="-130" as="sourcePoint" />
            <mxPoint x="-1195" y="-180" as="targetPoint" />
          </mxGeometry>
        </mxCell>
        <mxCell id="ik2dCwQF5ZIuM_89za2r-26" value="" style="endArrow=none;html=1;rounded=0;entryX=1;entryY=0.5;entryDx=0;entryDy=0;" parent="1" source="BguIIfjn84fzUR3U_QyE-74" target="BguIIfjn84fzUR3U_QyE-102" edge="1">
          <mxGeometry width="50" height="50" relative="1" as="geometry">
            <mxPoint x="-1265" y="-30" as="sourcePoint" />
            <mxPoint x="-1215" y="-80" as="targetPoint" />
          </mxGeometry>
        </mxCell>
        <mxCell id="ik2dCwQF5ZIuM_89za2r-27" value="" style="endArrow=none;html=1;rounded=0;exitX=1;exitY=0.5;exitDx=0;exitDy=0;entryX=1;entryY=0.5;entryDx=0;entryDy=0;" parent="1" source="BguIIfjn84fzUR3U_QyE-73" target="BguIIfjn84fzUR3U_QyE-98" edge="1">
          <mxGeometry width="50" height="50" relative="1" as="geometry">
            <mxPoint x="-1215" y="-220" as="sourcePoint" />
            <mxPoint x="-1165" y="-230" as="targetPoint" />
          </mxGeometry>
        </mxCell>
        <mxCell id="ik2dCwQF5ZIuM_89za2r-28" value="" style="endArrow=none;html=1;rounded=0;exitX=0.5;exitY=1;exitDx=0;exitDy=0;entryX=0;entryY=0;entryDx=0;entryDy=0;" parent="1" source="ik2dCwQF5ZIuM_89za2r-21" target="ik2dCwQF5ZIuM_89za2r-3" edge="1">
          <mxGeometry width="50" height="50" relative="1" as="geometry">
            <mxPoint x="-1095" y="-330" as="sourcePoint" />
            <mxPoint x="-1045" y="-380" as="targetPoint" />
          </mxGeometry>
        </mxCell>
        <mxCell id="ik2dCwQF5ZIuM_89za2r-29" value="" style="endArrow=none;html=1;rounded=0;exitX=1;exitY=0.5;exitDx=0;exitDy=0;entryX=0;entryY=0.5;entryDx=0;entryDy=0;" parent="1" source="BguIIfjn84fzUR3U_QyE-70" target="ik2dCwQF5ZIuM_89za2r-21" edge="1">
          <mxGeometry width="50" height="50" relative="1" as="geometry">
            <mxPoint x="-1145" y="-320" as="sourcePoint" />
            <mxPoint x="-1095" y="-370" as="targetPoint" />
          </mxGeometry>
        </mxCell>
        <mxCell id="ik2dCwQF5ZIuM_89za2r-30" value="" style="endArrow=none;html=1;rounded=0;exitX=1;exitY=0.5;exitDx=0;exitDy=0;entryX=0;entryY=0.5;entryDx=0;entryDy=0;" parent="1" source="BguIIfjn84fzUR3U_QyE-71" target="ik2dCwQF5ZIuM_89za2r-21" edge="1">
          <mxGeometry width="50" height="50" relative="1" as="geometry">
            <mxPoint x="-1345" y="-456" as="sourcePoint" />
            <mxPoint x="-965" y="-435" as="targetPoint" />
          </mxGeometry>
        </mxCell>
        <mxCell id="ik2dCwQF5ZIuM_89za2r-31" value="" style="endArrow=none;html=1;rounded=0;exitX=1;exitY=0;exitDx=0;exitDy=0;entryX=0;entryY=0.5;entryDx=0;entryDy=0;" parent="1" source="BguIIfjn84fzUR3U_QyE-72" target="ik2dCwQF5ZIuM_89za2r-21" edge="1">
          <mxGeometry width="50" height="50" relative="1" as="geometry">
            <mxPoint x="-1345" y="-375" as="sourcePoint" />
            <mxPoint x="-965" y="-435" as="targetPoint" />
          </mxGeometry>
        </mxCell>
        <mxCell id="ik2dCwQF5ZIuM_89za2r-32" value="" style="endArrow=none;html=1;rounded=0;exitX=0.5;exitY=1;exitDx=0;exitDy=0;entryX=1;entryY=1;entryDx=0;entryDy=0;" parent="1" source="BguIIfjn84fzUR3U_QyE-14" target="BguIIfjn84fzUR3U_QyE-88" edge="1">
          <mxGeometry width="50" height="50" relative="1" as="geometry">
            <mxPoint x="-925" y="-970" as="sourcePoint" />
            <mxPoint x="-875" y="-1020" as="targetPoint" />
            <Array as="points" />
          </mxGeometry>
        </mxCell>
        <mxCell id="ik2dCwQF5ZIuM_89za2r-33" value="" style="endArrow=none;html=1;rounded=0;exitX=1;exitY=1;exitDx=0;exitDy=0;entryX=1;entryY=1;entryDx=0;entryDy=0;" parent="1" source="BguIIfjn84fzUR3U_QyE-66" target="BguIIfjn84fzUR3U_QyE-88" edge="1">
          <mxGeometry width="50" height="50" relative="1" as="geometry">
            <mxPoint x="-945" y="-1050" as="sourcePoint" />
            <mxPoint x="-895" y="-1100" as="targetPoint" />
          </mxGeometry>
        </mxCell>
        <mxCell id="ik2dCwQF5ZIuM_89za2r-35" value="" style="endArrow=none;html=1;rounded=0;exitX=1;exitY=1;exitDx=0;exitDy=0;entryX=0.5;entryY=1;entryDx=0;entryDy=0;" parent="1" source="BguIIfjn84fzUR3U_QyE-14" target="BguIIfjn84fzUR3U_QyE-85" edge="1">
          <mxGeometry width="50" height="50" relative="1" as="geometry">
            <mxPoint x="-695" y="-950" as="sourcePoint" />
            <mxPoint x="-645" y="-1000" as="targetPoint" />
          </mxGeometry>
        </mxCell>
        <mxCell id="ik2dCwQF5ZIuM_89za2r-36" value="" style="endArrow=none;html=1;rounded=0;entryX=0.5;entryY=1;entryDx=0;entryDy=0;exitX=1;exitY=1;exitDx=0;exitDy=0;" parent="1" source="BguIIfjn84fzUR3U_QyE-94" target="BguIIfjn84fzUR3U_QyE-15" edge="1">
          <mxGeometry width="50" height="50" relative="1" as="geometry">
            <mxPoint x="-1009.9989160788577" y="-669.6300404011181" as="sourcePoint" />
            <mxPoint x="-1017.3699999999999" y="-720" as="targetPoint" />
          </mxGeometry>
        </mxCell>
        <mxCell id="ik2dCwQF5ZIuM_89za2r-37" value="" style="endArrow=none;html=1;rounded=0;entryX=0.5;entryY=1;entryDx=0;entryDy=0;exitX=0.5;exitY=0;exitDx=0;exitDy=0;" parent="1" source="BguIIfjn84fzUR3U_QyE-72" target="BguIIfjn84fzUR3U_QyE-71" edge="1">
          <mxGeometry width="50" height="50" relative="1" as="geometry">
            <mxPoint x="-1735" y="-310" as="sourcePoint" />
            <mxPoint x="-1685" y="-360" as="targetPoint" />
          </mxGeometry>
        </mxCell>
        <mxCell id="ik2dCwQF5ZIuM_89za2r-38" value="" style="endArrow=none;html=1;rounded=0;exitX=0;exitY=0;exitDx=0;exitDy=0;entryX=0;entryY=1;entryDx=0;entryDy=0;" parent="1" source="BguIIfjn84fzUR3U_QyE-74" target="BguIIfjn84fzUR3U_QyE-71" edge="1">
          <mxGeometry width="50" height="50" relative="1" as="geometry">
            <mxPoint x="-1495" y="-190" as="sourcePoint" />
            <mxPoint x="-1445" y="-240" as="targetPoint" />
          </mxGeometry>
        </mxCell>
        <mxCell id="ik2dCwQF5ZIuM_89za2r-39" value="" style="endArrow=none;html=1;rounded=0;entryX=0;entryY=1;entryDx=0;entryDy=0;exitX=0;exitY=0;exitDx=0;exitDy=0;" parent="1" source="BguIIfjn84fzUR3U_QyE-73" target="BguIIfjn84fzUR3U_QyE-71" edge="1">
          <mxGeometry width="50" height="50" relative="1" as="geometry">
            <mxPoint x="-1505" y="-200" as="sourcePoint" />
            <mxPoint x="-1455" y="-250" as="targetPoint" />
          </mxGeometry>
        </mxCell>
        <mxCell id="ik2dCwQF5ZIuM_89za2r-40" value="" style="endArrow=none;html=1;rounded=0;entryX=0.5;entryY=1;entryDx=0;entryDy=0;exitX=1;exitY=1;exitDx=0;exitDy=0;" parent="1" source="BguIIfjn84fzUR3U_QyE-88" target="BguIIfjn84fzUR3U_QyE-107" edge="1">
          <mxGeometry width="50" height="50" relative="1" as="geometry">
            <mxPoint x="-1017.8615148825072" y="-529.4922942185756" as="sourcePoint" />
            <mxPoint x="-1085" y="-580" as="targetPoint" />
            <Array as="points">
              <mxPoint x="-1035" y="-550" />
            </Array>
          </mxGeometry>
        </mxCell>
        <mxCell id="ik2dCwQF5ZIuM_89za2r-41" value="Начать разработку" style="ellipse;whiteSpace=wrap;html=1;" parent="1" vertex="1">
          <mxGeometry x="-1155" y="-530" width="120" height="60" as="geometry" />
        </mxCell>
        <mxCell id="ik2dCwQF5ZIuM_89za2r-43" value="«extend»" style="edgeStyle=none;rounded=1;html=1;labelBackgroundColor=none;startArrow=none;startFill=0;startSize=5;endArrow=classicThin;endFill=1;endSize=12;jettySize=auto;orthogonalLoop=1;strokeColor=#B3B3B3;strokeWidth=2;fontFamily=Verdana;fontSize=12;entryX=0.5;entryY=1;entryDx=0;entryDy=0;exitX=0.5;exitY=0;exitDx=0;exitDy=0;" parent="1" source="BguIIfjn84fzUR3U_QyE-85" target="BguIIfjn84fzUR3U_QyE-88" edge="1">
          <mxGeometry x="-0.0713" y="-9" relative="1" as="geometry">
            <mxPoint x="-1025" y="-490" as="sourcePoint" />
            <mxPoint x="-805" y="-480" as="targetPoint" />
            <mxPoint as="offset" />
          </mxGeometry>
        </mxCell>
        <mxCell id="ik2dCwQF5ZIuM_89za2r-44" value="Просмотр&lt;br&gt;проектов&lt;br&gt;фирмы" style="ellipse;whiteSpace=wrap;html=1;" parent="1" vertex="1">
          <mxGeometry x="-1435" y="-1105" width="120" height="70" as="geometry" />
        </mxCell>
        <mxCell id="ik2dCwQF5ZIuM_89za2r-45" value="" style="edgeStyle=none;rounded=1;html=1;labelBackgroundColor=none;startArrow=none;startFill=0;startSize=5;endArrow=classicThin;endFill=1;endSize=12;jettySize=auto;orthogonalLoop=1;strokeColor=#B3B3B3;strokeWidth=2;fontFamily=Verdana;fontSize=12;entryX=0;entryY=0.5;entryDx=0;entryDy=0;exitX=1;exitY=0.3333333333333333;exitDx=0;exitDy=0;exitPerimeter=0;" parent="1" target="ik2dCwQF5ZIuM_89za2r-44" edge="1">
          <mxGeometry x="0.0147" y="6" relative="1" as="geometry">
            <mxPoint x="-1555" y="-973.333333333333" as="sourcePoint" />
            <mxPoint as="offset" />
            <mxPoint x="-917" y="-1065" as="targetPoint" />
          </mxGeometry>
        </mxCell>
        <mxCell id="ik2dCwQF5ZIuM_89za2r-46" value="Просмотреть&lt;br&gt;заказанный&lt;br&gt;проект" style="ellipse;whiteSpace=wrap;html=1;" parent="1" vertex="1">
          <mxGeometry x="-1425" y="-960" width="120" height="80" as="geometry" />
        </mxCell>
        <mxCell id="ik2dCwQF5ZIuM_89za2r-47" value="«include»" style="edgeStyle=none;rounded=1;html=1;labelBackgroundColor=none;startArrow=none;startFill=0;startSize=5;endArrow=classicThin;endFill=1;endSize=12;jettySize=auto;orthogonalLoop=1;strokeColor=#B3B3B3;strokeWidth=2;fontFamily=Verdana;fontSize=12;entryX=0;entryY=0.5;entryDx=0;entryDy=0;exitX=1;exitY=1;exitDx=0;exitDy=0;" parent="1" source="ik2dCwQF5ZIuM_89za2r-46" target="BguIIfjn84fzUR3U_QyE-107" edge="1">
          <mxGeometry x="-0.2589" y="-15" relative="1" as="geometry">
            <mxPoint x="-1128" y="-945" as="sourcePoint" />
            <mxPoint x="-1090" y="-810" as="targetPoint" />
            <mxPoint as="offset" />
          </mxGeometry>
        </mxCell>
        <mxCell id="ik2dCwQF5ZIuM_89za2r-48" value="" style="endArrow=none;html=1;rounded=0;entryX=0;entryY=1;entryDx=0;entryDy=0;exitX=1;exitY=0.5;exitDx=0;exitDy=0;" parent="1" source="ik2dCwQF5ZIuM_89za2r-46" target="BguIIfjn84fzUR3U_QyE-8" edge="1">
          <mxGeometry width="50" height="50" relative="1" as="geometry">
            <mxPoint x="-1275" y="-900" as="sourcePoint" />
            <mxPoint x="-1225" y="-950" as="targetPoint" />
          </mxGeometry>
        </mxCell>
        <mxCell id="ik2dCwQF5ZIuM_89za2r-49" value="" style="endArrow=none;html=1;rounded=0;entryX=1;entryY=1;entryDx=0;entryDy=0;entryPerimeter=0;exitX=1;exitY=0.5;exitDx=0;exitDy=0;" parent="1" source="BguIIfjn84fzUR3U_QyE-93" edge="1">
          <mxGeometry width="50" height="50" relative="1" as="geometry">
            <mxPoint x="-1615" y="-780" as="sourcePoint" />
            <mxPoint x="-1555" y="-920" as="targetPoint" />
          </mxGeometry>
        </mxCell>
        <mxCell id="ik2dCwQF5ZIuM_89za2r-50" value="" style="endArrow=none;html=1;rounded=0;entryX=1;entryY=0.5;entryDx=0;entryDy=0;exitX=1;exitY=1;exitDx=0;exitDy=0;exitPerimeter=0;" parent="1" target="BguIIfjn84fzUR3U_QyE-94" edge="1">
          <mxGeometry width="50" height="50" relative="1" as="geometry">
            <mxPoint x="-1555" y="-920" as="sourcePoint" />
            <mxPoint x="-1065" y="-660" as="targetPoint" />
          </mxGeometry>
        </mxCell>
        <mxCell id="ik2dCwQF5ZIuM_89za2r-51" value="Отправить&lt;br&gt;сообщение в чат&lt;br&gt;на сайте" style="ellipse;whiteSpace=wrap;html=1;" parent="1" vertex="1">
          <mxGeometry x="-745" y="-870" width="120" height="80" as="geometry" />
        </mxCell>
        <mxCell id="ik2dCwQF5ZIuM_89za2r-53" value="«include»" style="edgeStyle=none;rounded=1;html=1;labelBackgroundColor=none;startArrow=none;startFill=0;startSize=5;endArrow=classicThin;endFill=1;endSize=12;jettySize=auto;orthogonalLoop=1;strokeColor=#B3B3B3;strokeWidth=2;fontFamily=Verdana;fontSize=12;entryX=0.5;entryY=1;entryDx=0;entryDy=0;exitX=0.5;exitY=1;exitDx=0;exitDy=0;" parent="1" source="BguIIfjn84fzUR3U_QyE-85" target="ik2dCwQF5ZIuM_89za2r-51" edge="1">
          <mxGeometry x="0.0125" y="12" relative="1" as="geometry">
            <mxPoint x="-785" y="-907" as="sourcePoint" />
            <mxPoint x="-695" y="-847" as="targetPoint" />
            <mxPoint as="offset" />
          </mxGeometry>
        </mxCell>
        <mxCell id="ik2dCwQF5ZIuM_89za2r-54" value="«include»" style="edgeStyle=none;rounded=1;html=1;labelBackgroundColor=none;startArrow=none;startFill=0;startSize=5;endArrow=classicThin;endFill=1;endSize=12;jettySize=auto;orthogonalLoop=1;strokeColor=#B3B3B3;strokeWidth=2;fontFamily=Verdana;fontSize=12;entryX=0;entryY=0;entryDx=0;entryDy=0;" parent="1" source="BguIIfjn84fzUR3U_QyE-14" target="ik2dCwQF5ZIuM_89za2r-51" edge="1">
          <mxGeometry x="0.0125" y="12" relative="1" as="geometry">
            <mxPoint x="-590" y="-880" as="sourcePoint" />
            <mxPoint x="-575" y="-710" as="targetPoint" />
            <mxPoint as="offset" />
          </mxGeometry>
        </mxCell>
        <mxCell id="ik2dCwQF5ZIuM_89za2r-55" value="Управлять&lt;br&gt;сайтом" style="ellipse;whiteSpace=wrap;html=1;" parent="1" vertex="1">
          <mxGeometry x="-785" y="-1110" width="120" height="80" as="geometry" />
        </mxCell>
        <mxCell id="ik2dCwQF5ZIuM_89za2r-56" value="Менеджер&lt;br&gt;сайта" style="shape=umlActor;verticalLabelPosition=bottom;verticalAlign=top;html=1;outlineConnect=0;" parent="1" vertex="1">
          <mxGeometry x="-575" y="-1095" width="50" height="80" as="geometry" />
        </mxCell>
        <mxCell id="ik2dCwQF5ZIuM_89za2r-57" value="" style="endArrow=none;html=1;rounded=0;exitX=1;exitY=0.5;exitDx=0;exitDy=0;entryX=0;entryY=0.5;entryDx=0;entryDy=0;" parent="1" source="ik2dCwQF5ZIuM_89za2r-44" target="ik2dCwQF5ZIuM_89za2r-55" edge="1">
          <mxGeometry width="50" height="50" relative="1" as="geometry">
            <mxPoint x="-1025" y="-1100" as="sourcePoint" />
            <mxPoint x="-975" y="-1150" as="targetPoint" />
          </mxGeometry>
        </mxCell>
        <mxCell id="ik2dCwQF5ZIuM_89za2r-58" value="" style="endArrow=none;html=1;rounded=0;entryX=0.5;entryY=1;entryDx=0;entryDy=0;exitX=0.5;exitY=0;exitDx=0;exitDy=0;" parent="1" source="ik2dCwQF5ZIuM_89za2r-51" target="ik2dCwQF5ZIuM_89za2r-55" edge="1">
          <mxGeometry width="50" height="50" relative="1" as="geometry">
            <mxPoint x="-735" y="-910" as="sourcePoint" />
            <mxPoint x="-685" y="-960" as="targetPoint" />
          </mxGeometry>
        </mxCell>
        <mxCell id="ik2dCwQF5ZIuM_89za2r-59" value="" style="edgeStyle=none;rounded=1;html=1;labelBackgroundColor=none;startArrow=none;startFill=0;startSize=5;endArrow=classicThin;endFill=1;endSize=12;jettySize=auto;orthogonalLoop=1;strokeColor=#B3B3B3;strokeWidth=2;fontFamily=Verdana;fontSize=12;entryX=1;entryY=0.5;entryDx=0;entryDy=0;exitX=0;exitY=0.3333333333333333;exitDx=0;exitDy=0;exitPerimeter=0;" parent="1" source="ik2dCwQF5ZIuM_89za2r-56" target="ik2dCwQF5ZIuM_89za2r-55" edge="1">
          <mxGeometry x="0.0147" y="6" relative="1" as="geometry">
            <mxPoint x="-570" y="-363.33333333333326" as="sourcePoint" />
            <mxPoint as="offset" />
            <mxPoint x="-685" y="-480" as="targetPoint" />
          </mxGeometry>
        </mxCell>
        <mxCell id="1cH2lDWfz0xhoZldVyMo-1" value="Разработчик" style="shape=umlActor;verticalLabelPosition=bottom;verticalAlign=top;html=1;outlineConnect=0;" parent="1" vertex="1">
          <mxGeometry x="-1620" y="-360" width="50" height="80" as="geometry" />
        </mxCell>
        <mxCell id="1cH2lDWfz0xhoZldVyMo-2" value="Заказчик" style="shape=umlActor;verticalLabelPosition=bottom;verticalAlign=top;html=1;outlineConnect=0;" parent="1" vertex="1">
          <mxGeometry x="-1600" y="-1000" width="50" height="80" as="geometry" />
        </mxCell>
        <mxCell id="1cH2lDWfz0xhoZldVyMo-5" value="«include»" style="edgeStyle=none;rounded=1;html=1;labelBackgroundColor=none;startArrow=none;startFill=0;startSize=5;endArrow=classicThin;endFill=1;endSize=12;jettySize=auto;orthogonalLoop=1;strokeColor=#B3B3B3;strokeWidth=2;fontFamily=Verdana;fontSize=12;exitX=1;exitY=0.5;exitDx=0;exitDy=0;entryX=0;entryY=0.5;entryDx=0;entryDy=0;" parent="1" source="BguIIfjn84fzUR3U_QyE-15" target="ik2dCwQF5ZIuM_89za2r-51" edge="1">
          <mxGeometry x="0.7386" y="15" relative="1" as="geometry">
            <mxPoint x="-717" y="-848" as="sourcePoint" />
            <mxPoint x="-832" y="-885" as="targetPoint" />
            <mxPoint as="offset" />
          </mxGeometry>
        </mxCell>
        <mxCell id="1cH2lDWfz0xhoZldVyMo-6" value="«include»" style="edgeStyle=none;rounded=1;html=1;labelBackgroundColor=none;startArrow=none;startFill=0;startSize=5;endArrow=classicThin;endFill=1;endSize=12;jettySize=auto;orthogonalLoop=1;strokeColor=#B3B3B3;strokeWidth=2;fontFamily=Verdana;fontSize=12;exitX=0;exitY=1;exitDx=0;exitDy=0;entryX=0;entryY=1;entryDx=0;entryDy=0;" parent="1" source="BguIIfjn84fzUR3U_QyE-94" target="ik2dCwQF5ZIuM_89za2r-51" edge="1">
          <mxGeometry x="0.6604" y="17" relative="1" as="geometry">
            <mxPoint x="-987" y="-785" as="sourcePoint" />
            <mxPoint x="-735" y="-820" as="targetPoint" />
            <mxPoint as="offset" />
          </mxGeometry>
        </mxCell>
        <mxCell id="1cH2lDWfz0xhoZldVyMo-8" value="«include»" style="edgeStyle=none;rounded=1;html=1;labelBackgroundColor=none;startArrow=none;startFill=0;startSize=5;endArrow=classicThin;endFill=1;endSize=12;jettySize=auto;orthogonalLoop=1;strokeColor=#B3B3B3;strokeWidth=2;fontFamily=Verdana;fontSize=12;exitX=0;exitY=1;exitDx=0;exitDy=0;entryX=0;entryY=1;entryDx=0;entryDy=0;" parent="1" source="BguIIfjn84fzUR3U_QyE-93" target="ik2dCwQF5ZIuM_89za2r-51" edge="1">
          <mxGeometry x="0.6604" y="17" relative="1" as="geometry">
            <mxPoint x="-922" y="-690" as="sourcePoint" />
            <mxPoint x="-717" y="-792" as="targetPoint" />
            <mxPoint as="offset" />
          </mxGeometry>
        </mxCell>
        <mxCell id="1cH2lDWfz0xhoZldVyMo-9" value="&lt;b style=&quot;border-color: var(--border-color); color: rgb(0, 0, 0); font-family: Helvetica; font-size: 18px; font-style: normal; font-variant-ligatures: normal; font-variant-caps: normal; letter-spacing: normal; orphans: 2; text-align: center; text-indent: 0px; text-transform: none; widows: 2; word-spacing: 0px; -webkit-text-stroke-width: 0px; background-color: rgb(251, 251, 251); text-decoration-thickness: initial; text-decoration-style: initial; text-decoration-color: initial;&quot;&gt;Фирма, разрабатывающая программное обеспечение&lt;/b&gt;" style="text;whiteSpace=wrap;html=1;" parent="1" vertex="1">
          <mxGeometry x="-1285" y="-1150" width="490" height="30" as="geometry" />
        </mxCell>
        <mxCell id="syS-U0Df6C2rgqT-Qkvw-1" value="«include»" style="edgeStyle=none;rounded=1;html=1;labelBackgroundColor=none;startArrow=none;startFill=0;startSize=5;endArrow=classicThin;endFill=1;endSize=12;jettySize=auto;orthogonalLoop=1;strokeColor=#B3B3B3;strokeWidth=2;fontFamily=Verdana;fontSize=12;entryX=0.292;entryY=0.026;entryDx=0;entryDy=0;exitX=1;exitY=0.5;exitDx=0;exitDy=0;entryPerimeter=0;" parent="1" source="BguIIfjn84fzUR3U_QyE-66" target="ik2dCwQF5ZIuM_89za2r-51" edge="1">
          <mxGeometry x="0.0125" y="12" relative="1" as="geometry">
            <mxPoint x="-836" y="-873" as="sourcePoint" />
            <mxPoint x="-717" y="-848" as="targetPoint" />
            <mxPoint as="offset" />
          </mxGeometry>
        </mxCell>
      </root>
    </mxGraphModel>
  </diagram>
</mxfile>
