<mxfile host="Electron" modified="2023-10-09T07:09:55.698Z" agent="Mozilla/5.0 (Windows NT 10.0; Win64; x64) AppleWebKit/537.36 (KHTML, like Gecko) draw.io/22.0.2 Chrome/114.0.5735.289 Electron/25.8.4 Safari/537.36" etag="u-o6UjDLlLaBSFL-A2zp" version="22.0.2" type="device">
  <diagram name="Страница — 1" id="aasP6al92kTgNYklelx4">
    <mxGraphModel dx="3747" dy="2332" grid="1" gridSize="10" guides="1" tooltips="1" connect="1" arrows="1" fold="1" page="1" pageScale="1" pageWidth="1169" pageHeight="827" math="0" shadow="0">
      <root>
        <mxCell id="0" />
        <mxCell id="1" parent="0" />
        <mxCell id="lI8jSy1e6cQpeX_MShpy-94" value="" style="rounded=0;whiteSpace=wrap;html=1;fillColor=none;dashed=1;dashPattern=8 8;" parent="1" vertex="1">
          <mxGeometry x="-140" y="240" width="526" height="550" as="geometry" />
        </mxCell>
        <mxCell id="lI8jSy1e6cQpeX_MShpy-74" value="" style="rounded=0;whiteSpace=wrap;html=1;fillColor=none;dashed=1;dashPattern=8 8;" parent="1" vertex="1">
          <mxGeometry x="960" y="-150" width="190" height="120" as="geometry" />
        </mxCell>
        <mxCell id="lI8jSy1e6cQpeX_MShpy-32" value="" style="rounded=0;whiteSpace=wrap;html=1;fillColor=none;dashed=1;dashPattern=8 8;" parent="1" vertex="1">
          <mxGeometry x="50" y="-100" width="246" height="290" as="geometry" />
        </mxCell>
        <mxCell id="JH8YH3rzshkEENaePMKb-2" value="Коммутатор ЛВС 2&lt;br&gt;1000 Base TX" style="rounded=0;whiteSpace=wrap;html=1;" parent="1" vertex="1">
          <mxGeometry x="58" y="50" width="230" height="70" as="geometry" />
        </mxCell>
        <mxCell id="JH8YH3rzshkEENaePMKb-11" style="edgeStyle=orthogonalEdgeStyle;rounded=0;orthogonalLoop=1;jettySize=auto;html=1;exitX=0.5;exitY=0;exitDx=0;exitDy=0;entryX=0.075;entryY=1;entryDx=0;entryDy=0;entryPerimeter=0;endArrow=box;endFill=0;" parent="1" source="JH8YH3rzshkEENaePMKb-5" target="JH8YH3rzshkEENaePMKb-2" edge="1">
          <mxGeometry relative="1" as="geometry" />
        </mxCell>
        <mxCell id="JH8YH3rzshkEENaePMKb-5" value="ФС" style="whiteSpace=wrap;html=1;aspect=fixed;" parent="1" vertex="1">
          <mxGeometry x="58" y="150" width="30" height="30" as="geometry" />
        </mxCell>
        <mxCell id="JH8YH3rzshkEENaePMKb-13" style="edgeStyle=orthogonalEdgeStyle;rounded=0;orthogonalLoop=1;jettySize=auto;html=1;exitX=0.5;exitY=0;exitDx=0;exitDy=0;entryX=0.548;entryY=0.996;entryDx=0;entryDy=0;entryPerimeter=0;endArrow=box;endFill=0;" parent="1" source="JH8YH3rzshkEENaePMKb-7" target="JH8YH3rzshkEENaePMKb-2" edge="1">
          <mxGeometry relative="1" as="geometry" />
        </mxCell>
        <mxCell id="JH8YH3rzshkEENaePMKb-7" value="PC" style="whiteSpace=wrap;html=1;aspect=fixed;" parent="1" vertex="1">
          <mxGeometry x="168" y="150" width="30" height="30" as="geometry" />
        </mxCell>
        <mxCell id="JH8YH3rzshkEENaePMKb-14" style="edgeStyle=orthogonalEdgeStyle;rounded=0;orthogonalLoop=1;jettySize=auto;html=1;exitX=0.5;exitY=0;exitDx=0;exitDy=0;endArrow=box;endFill=0;" parent="1" source="JH8YH3rzshkEENaePMKb-9" edge="1">
          <mxGeometry relative="1" as="geometry">
            <mxPoint x="242" y="120" as="targetPoint" />
          </mxGeometry>
        </mxCell>
        <mxCell id="JH8YH3rzshkEENaePMKb-9" value="PC" style="whiteSpace=wrap;html=1;aspect=fixed;" parent="1" vertex="1">
          <mxGeometry x="227" y="150" width="30" height="30" as="geometry" />
        </mxCell>
        <mxCell id="JH8YH3rzshkEENaePMKb-10" value="&lt;font style=&quot;font-size: 16px;&quot;&gt;...&lt;/font&gt;" style="text;html=1;align=center;verticalAlign=middle;resizable=0;points=[];autosize=1;strokeColor=none;fillColor=none;" parent="1" vertex="1">
          <mxGeometry x="190" y="146" width="40" height="30" as="geometry" />
        </mxCell>
        <mxCell id="JH8YH3rzshkEENaePMKb-40" style="edgeStyle=orthogonalEdgeStyle;rounded=0;orthogonalLoop=1;jettySize=auto;html=1;startArrow=box;startFill=0;endArrow=box;endFill=0;entryX=0.75;entryY=0;entryDx=0;entryDy=0;exitX=0.75;exitY=1;exitDx=0;exitDy=0;" parent="1" source="JH8YH3rzshkEENaePMKb-35" target="JH8YH3rzshkEENaePMKb-2" edge="1">
          <mxGeometry relative="1" as="geometry">
            <mxPoint x="380.5000000000001" y="-90" as="sourcePoint" />
            <mxPoint x="378" as="targetPoint" />
          </mxGeometry>
        </mxCell>
        <mxCell id="JH8YH3rzshkEENaePMKb-35" value="Маршрутизатор ЛВС 2" style="rounded=0;whiteSpace=wrap;html=1;" parent="1" vertex="1">
          <mxGeometry x="102" y="-70" width="160" height="70" as="geometry" />
        </mxCell>
        <mxCell id="JH8YH3rzshkEENaePMKb-36" value="Интернет" style="ellipse;shape=cloud;whiteSpace=wrap;html=1;" parent="1" vertex="1">
          <mxGeometry x="113" y="-280" width="120" height="80" as="geometry" />
        </mxCell>
        <mxCell id="JH8YH3rzshkEENaePMKb-43" value="" style="rounded=0;whiteSpace=wrap;html=1;fillColor=none;dashed=1;dashPattern=8 8;" parent="1" vertex="1">
          <mxGeometry x="-230" y="-100" width="250" height="290" as="geometry" />
        </mxCell>
        <mxCell id="JH8YH3rzshkEENaePMKb-44" value="" style="rounded=0;whiteSpace=wrap;html=1;fillColor=none;dashed=1;dashPattern=8 8;" parent="1" vertex="1">
          <mxGeometry x="320" y="-100" width="246" height="290" as="geometry" />
        </mxCell>
        <mxCell id="lI8jSy1e6cQpeX_MShpy-3" value="Коммутатор ЛВС 3&lt;br&gt;100 Base TX" style="rounded=0;whiteSpace=wrap;html=1;" parent="1" vertex="1">
          <mxGeometry x="326" y="46" width="230" height="70" as="geometry" />
        </mxCell>
        <mxCell id="lI8jSy1e6cQpeX_MShpy-4" style="edgeStyle=orthogonalEdgeStyle;rounded=0;orthogonalLoop=1;jettySize=auto;html=1;exitX=0.5;exitY=0;exitDx=0;exitDy=0;entryX=0.075;entryY=1;entryDx=0;entryDy=0;entryPerimeter=0;endArrow=box;endFill=0;" parent="1" source="lI8jSy1e6cQpeX_MShpy-5" target="lI8jSy1e6cQpeX_MShpy-3" edge="1">
          <mxGeometry relative="1" as="geometry" />
        </mxCell>
        <mxCell id="lI8jSy1e6cQpeX_MShpy-5" value="ФС" style="whiteSpace=wrap;html=1;aspect=fixed;" parent="1" vertex="1">
          <mxGeometry x="326" y="146" width="30" height="30" as="geometry" />
        </mxCell>
        <mxCell id="lI8jSy1e6cQpeX_MShpy-6" style="edgeStyle=orthogonalEdgeStyle;rounded=0;orthogonalLoop=1;jettySize=auto;html=1;exitX=0.5;exitY=0;exitDx=0;exitDy=0;entryX=0.548;entryY=0.996;entryDx=0;entryDy=0;entryPerimeter=0;endArrow=box;endFill=0;" parent="1" source="lI8jSy1e6cQpeX_MShpy-7" target="lI8jSy1e6cQpeX_MShpy-3" edge="1">
          <mxGeometry relative="1" as="geometry" />
        </mxCell>
        <mxCell id="lI8jSy1e6cQpeX_MShpy-7" value="PC" style="whiteSpace=wrap;html=1;aspect=fixed;" parent="1" vertex="1">
          <mxGeometry x="436" y="146" width="30" height="30" as="geometry" />
        </mxCell>
        <mxCell id="lI8jSy1e6cQpeX_MShpy-8" style="edgeStyle=orthogonalEdgeStyle;rounded=0;orthogonalLoop=1;jettySize=auto;html=1;exitX=0.5;exitY=0;exitDx=0;exitDy=0;endArrow=box;endFill=0;" parent="1" source="lI8jSy1e6cQpeX_MShpy-9" edge="1">
          <mxGeometry relative="1" as="geometry">
            <mxPoint x="510" y="116" as="targetPoint" />
          </mxGeometry>
        </mxCell>
        <mxCell id="lI8jSy1e6cQpeX_MShpy-9" value="PC" style="whiteSpace=wrap;html=1;aspect=fixed;" parent="1" vertex="1">
          <mxGeometry x="495" y="146" width="30" height="30" as="geometry" />
        </mxCell>
        <mxCell id="lI8jSy1e6cQpeX_MShpy-10" value="&lt;font style=&quot;font-size: 16px;&quot;&gt;...&lt;/font&gt;" style="text;html=1;align=center;verticalAlign=middle;resizable=0;points=[];autosize=1;strokeColor=none;fillColor=none;" parent="1" vertex="1">
          <mxGeometry x="458" y="142" width="40" height="30" as="geometry" />
        </mxCell>
        <mxCell id="lI8jSy1e6cQpeX_MShpy-11" style="edgeStyle=orthogonalEdgeStyle;rounded=0;orthogonalLoop=1;jettySize=auto;html=1;startArrow=box;startFill=0;endArrow=box;endFill=0;entryX=0.75;entryY=0;entryDx=0;entryDy=0;exitX=0.75;exitY=1;exitDx=0;exitDy=0;" parent="1" source="lI8jSy1e6cQpeX_MShpy-12" target="lI8jSy1e6cQpeX_MShpy-3" edge="1">
          <mxGeometry relative="1" as="geometry">
            <mxPoint x="648.5000000000001" y="-94" as="sourcePoint" />
            <mxPoint x="646" y="-4" as="targetPoint" />
          </mxGeometry>
        </mxCell>
        <mxCell id="lI8jSy1e6cQpeX_MShpy-12" value="Маршрутизатор ЛВС 3" style="rounded=0;whiteSpace=wrap;html=1;" parent="1" vertex="1">
          <mxGeometry x="370" y="-74" width="160" height="70" as="geometry" />
        </mxCell>
        <mxCell id="lI8jSy1e6cQpeX_MShpy-13" value="Коммутатор ЛВС 1&lt;br&gt;10G Base SR" style="rounded=0;whiteSpace=wrap;html=1;" parent="1" vertex="1">
          <mxGeometry x="-220" y="50" width="230" height="70" as="geometry" />
        </mxCell>
        <mxCell id="lI8jSy1e6cQpeX_MShpy-14" style="edgeStyle=orthogonalEdgeStyle;rounded=0;orthogonalLoop=1;jettySize=auto;html=1;exitX=0.5;exitY=0;exitDx=0;exitDy=0;entryX=0.075;entryY=1;entryDx=0;entryDy=0;entryPerimeter=0;endArrow=box;endFill=0;" parent="1" source="lI8jSy1e6cQpeX_MShpy-15" target="lI8jSy1e6cQpeX_MShpy-13" edge="1">
          <mxGeometry relative="1" as="geometry" />
        </mxCell>
        <mxCell id="lI8jSy1e6cQpeX_MShpy-15" value="ФС" style="whiteSpace=wrap;html=1;aspect=fixed;" parent="1" vertex="1">
          <mxGeometry x="-220" y="150" width="30" height="30" as="geometry" />
        </mxCell>
        <mxCell id="lI8jSy1e6cQpeX_MShpy-16" style="edgeStyle=orthogonalEdgeStyle;rounded=0;orthogonalLoop=1;jettySize=auto;html=1;exitX=0.5;exitY=0;exitDx=0;exitDy=0;entryX=0.548;entryY=0.996;entryDx=0;entryDy=0;entryPerimeter=0;endArrow=box;endFill=0;" parent="1" source="lI8jSy1e6cQpeX_MShpy-17" target="lI8jSy1e6cQpeX_MShpy-13" edge="1">
          <mxGeometry relative="1" as="geometry" />
        </mxCell>
        <mxCell id="lI8jSy1e6cQpeX_MShpy-17" value="PC" style="whiteSpace=wrap;html=1;aspect=fixed;" parent="1" vertex="1">
          <mxGeometry x="-110" y="150" width="30" height="30" as="geometry" />
        </mxCell>
        <mxCell id="lI8jSy1e6cQpeX_MShpy-18" style="edgeStyle=orthogonalEdgeStyle;rounded=0;orthogonalLoop=1;jettySize=auto;html=1;exitX=0.5;exitY=0;exitDx=0;exitDy=0;endArrow=box;endFill=0;" parent="1" source="lI8jSy1e6cQpeX_MShpy-19" edge="1">
          <mxGeometry relative="1" as="geometry">
            <mxPoint x="-36" y="120" as="targetPoint" />
          </mxGeometry>
        </mxCell>
        <mxCell id="lI8jSy1e6cQpeX_MShpy-19" value="PC" style="whiteSpace=wrap;html=1;aspect=fixed;" parent="1" vertex="1">
          <mxGeometry x="-51" y="150" width="30" height="30" as="geometry" />
        </mxCell>
        <mxCell id="lI8jSy1e6cQpeX_MShpy-20" value="&lt;font style=&quot;font-size: 16px;&quot;&gt;...&lt;/font&gt;" style="text;html=1;align=center;verticalAlign=middle;resizable=0;points=[];autosize=1;strokeColor=none;fillColor=none;" parent="1" vertex="1">
          <mxGeometry x="-88" y="146" width="40" height="30" as="geometry" />
        </mxCell>
        <mxCell id="lI8jSy1e6cQpeX_MShpy-21" style="edgeStyle=orthogonalEdgeStyle;rounded=0;orthogonalLoop=1;jettySize=auto;html=1;startArrow=box;startFill=0;endArrow=box;endFill=0;entryX=0.75;entryY=0;entryDx=0;entryDy=0;exitX=0.75;exitY=1;exitDx=0;exitDy=0;" parent="1" source="lI8jSy1e6cQpeX_MShpy-22" target="lI8jSy1e6cQpeX_MShpy-13" edge="1">
          <mxGeometry relative="1" as="geometry">
            <mxPoint x="102.50000000000011" y="-90" as="sourcePoint" />
            <mxPoint x="100" as="targetPoint" />
          </mxGeometry>
        </mxCell>
        <mxCell id="lI8jSy1e6cQpeX_MShpy-37" style="rounded=0;orthogonalLoop=1;jettySize=auto;html=1;startArrow=none;startFill=0;endArrow=none;endFill=0;" parent="1" source="lI8jSy1e6cQpeX_MShpy-22" edge="1">
          <mxGeometry relative="1" as="geometry">
            <mxPoint x="-20" y="-150" as="targetPoint" />
          </mxGeometry>
        </mxCell>
        <mxCell id="lI8jSy1e6cQpeX_MShpy-22" value="Маршрутизатор ЛВС 1" style="rounded=0;whiteSpace=wrap;html=1;" parent="1" vertex="1">
          <mxGeometry x="-176" y="-70" width="160" height="70" as="geometry" />
        </mxCell>
        <mxCell id="lI8jSy1e6cQpeX_MShpy-33" value="" style="html=1;outlineConnect=0;fillColor=#CCCCCC;strokeColor=#6881B3;gradientColor=none;gradientDirection=north;strokeWidth=2;shape=mxgraph.networks.comm_link_edge;html=1;rounded=0;exitX=0.5;exitY=0;exitDx=0;exitDy=0;entryX=0.13;entryY=0.77;entryDx=0;entryDy=0;entryPerimeter=0;" parent="1" source="JH8YH3rzshkEENaePMKb-43" target="JH8YH3rzshkEENaePMKb-36" edge="1">
          <mxGeometry width="100" height="100" relative="1" as="geometry">
            <mxPoint x="-90" y="-100" as="sourcePoint" />
            <mxPoint x="10" y="-200" as="targetPoint" />
          </mxGeometry>
        </mxCell>
        <mxCell id="lI8jSy1e6cQpeX_MShpy-35" value="" style="html=1;outlineConnect=0;fillColor=#CCCCCC;strokeColor=#6881B3;gradientColor=none;gradientDirection=north;strokeWidth=2;shape=mxgraph.networks.comm_link_edge;html=1;rounded=0;exitX=0.5;exitY=0;exitDx=0;exitDy=0;entryX=0.55;entryY=0.95;entryDx=0;entryDy=0;entryPerimeter=0;" parent="1" source="lI8jSy1e6cQpeX_MShpy-32" target="JH8YH3rzshkEENaePMKb-36" edge="1">
          <mxGeometry width="100" height="100" relative="1" as="geometry">
            <mxPoint x="34" y="-100" as="sourcePoint" />
            <mxPoint x="257" y="-228" as="targetPoint" />
          </mxGeometry>
        </mxCell>
        <mxCell id="lI8jSy1e6cQpeX_MShpy-36" value="" style="html=1;outlineConnect=0;fillColor=#CCCCCC;strokeColor=#6881B3;gradientColor=none;gradientDirection=north;strokeWidth=2;shape=mxgraph.networks.comm_link_edge;html=1;rounded=0;exitX=0.5;exitY=0;exitDx=0;exitDy=0;entryX=0.96;entryY=0.7;entryDx=0;entryDy=0;entryPerimeter=0;" parent="1" source="JH8YH3rzshkEENaePMKb-44" target="JH8YH3rzshkEENaePMKb-36" edge="1">
          <mxGeometry width="100" height="100" relative="1" as="geometry">
            <mxPoint x="-85" y="-80" as="sourcePoint" />
            <mxPoint x="138" y="-208" as="targetPoint" />
          </mxGeometry>
        </mxCell>
        <mxCell id="lI8jSy1e6cQpeX_MShpy-38" style="rounded=0;orthogonalLoop=1;jettySize=auto;html=1;startArrow=none;startFill=0;endArrow=none;endFill=0;exitX=0.5;exitY=0;exitDx=0;exitDy=0;" parent="1" source="JH8YH3rzshkEENaePMKb-35" edge="1">
          <mxGeometry relative="1" as="geometry">
            <mxPoint x="180" y="-150" as="targetPoint" />
            <mxPoint x="177.5" y="-74" as="sourcePoint" />
          </mxGeometry>
        </mxCell>
        <mxCell id="lI8jSy1e6cQpeX_MShpy-39" style="rounded=0;orthogonalLoop=1;jettySize=auto;html=1;startArrow=none;startFill=0;endArrow=none;endFill=0;exitX=0.5;exitY=0;exitDx=0;exitDy=0;" parent="1" source="lI8jSy1e6cQpeX_MShpy-12" edge="1">
          <mxGeometry relative="1" as="geometry">
            <mxPoint x="330" y="-150" as="targetPoint" />
            <mxPoint x="457" y="-100" as="sourcePoint" />
          </mxGeometry>
        </mxCell>
        <mxCell id="lI8jSy1e6cQpeX_MShpy-40" value="" style="rounded=0;whiteSpace=wrap;html=1;fillColor=none;dashed=1;dashPattern=8 8;" parent="1" vertex="1">
          <mxGeometry x="660" y="30" width="250" height="160" as="geometry" />
        </mxCell>
        <mxCell id="lI8jSy1e6cQpeX_MShpy-42" style="edgeStyle=orthogonalEdgeStyle;rounded=0;orthogonalLoop=1;jettySize=auto;html=1;exitX=0.5;exitY=0;exitDx=0;exitDy=0;entryX=0.075;entryY=1;entryDx=0;entryDy=0;entryPerimeter=0;endArrow=box;endFill=0;" parent="1" source="lI8jSy1e6cQpeX_MShpy-43" target="lI8jSy1e6cQpeX_MShpy-41" edge="1">
          <mxGeometry relative="1" as="geometry" />
        </mxCell>
        <mxCell id="lI8jSy1e6cQpeX_MShpy-43" value="ФС" style="whiteSpace=wrap;html=1;aspect=fixed;" parent="1" vertex="1">
          <mxGeometry x="670" y="150" width="30" height="30" as="geometry" />
        </mxCell>
        <mxCell id="lI8jSy1e6cQpeX_MShpy-44" style="edgeStyle=orthogonalEdgeStyle;rounded=0;orthogonalLoop=1;jettySize=auto;html=1;exitX=0.5;exitY=0;exitDx=0;exitDy=0;entryX=0.548;entryY=0.996;entryDx=0;entryDy=0;entryPerimeter=0;endArrow=box;endFill=0;" parent="1" source="lI8jSy1e6cQpeX_MShpy-45" target="lI8jSy1e6cQpeX_MShpy-41" edge="1">
          <mxGeometry relative="1" as="geometry" />
        </mxCell>
        <mxCell id="lI8jSy1e6cQpeX_MShpy-45" value="PC" style="whiteSpace=wrap;html=1;aspect=fixed;" parent="1" vertex="1">
          <mxGeometry x="780" y="150" width="30" height="30" as="geometry" />
        </mxCell>
        <mxCell id="lI8jSy1e6cQpeX_MShpy-46" style="edgeStyle=orthogonalEdgeStyle;rounded=0;orthogonalLoop=1;jettySize=auto;html=1;exitX=0.5;exitY=0;exitDx=0;exitDy=0;endArrow=box;endFill=0;" parent="1" source="lI8jSy1e6cQpeX_MShpy-47" edge="1">
          <mxGeometry relative="1" as="geometry">
            <mxPoint x="854" y="120" as="targetPoint" />
          </mxGeometry>
        </mxCell>
        <mxCell id="lI8jSy1e6cQpeX_MShpy-47" value="PC" style="whiteSpace=wrap;html=1;aspect=fixed;" parent="1" vertex="1">
          <mxGeometry x="839" y="150" width="30" height="30" as="geometry" />
        </mxCell>
        <mxCell id="lI8jSy1e6cQpeX_MShpy-48" value="&lt;font style=&quot;font-size: 16px;&quot;&gt;...&lt;/font&gt;" style="text;html=1;align=center;verticalAlign=middle;resizable=0;points=[];autosize=1;strokeColor=none;fillColor=none;" parent="1" vertex="1">
          <mxGeometry x="802" y="146" width="40" height="30" as="geometry" />
        </mxCell>
        <mxCell id="lI8jSy1e6cQpeX_MShpy-49" style="edgeStyle=orthogonalEdgeStyle;rounded=0;orthogonalLoop=1;jettySize=auto;html=1;startArrow=box;startFill=0;endArrow=box;endFill=0;entryX=0.5;entryY=0;entryDx=0;entryDy=0;exitX=0.25;exitY=1;exitDx=0;exitDy=0;" parent="1" source="lI8jSy1e6cQpeX_MShpy-50" target="lI8jSy1e6cQpeX_MShpy-41" edge="1">
          <mxGeometry relative="1" as="geometry">
            <mxPoint x="992.5000000000001" y="-90" as="sourcePoint" />
            <mxPoint x="990" as="targetPoint" />
          </mxGeometry>
        </mxCell>
        <mxCell id="lI8jSy1e6cQpeX_MShpy-51" value="" style="rounded=0;whiteSpace=wrap;html=1;fillColor=none;dashed=1;dashPattern=8 8;" parent="1" vertex="1">
          <mxGeometry x="930" y="30" width="250" height="160" as="geometry" />
        </mxCell>
        <mxCell id="lI8jSy1e6cQpeX_MShpy-53" style="edgeStyle=orthogonalEdgeStyle;rounded=0;orthogonalLoop=1;jettySize=auto;html=1;exitX=0.5;exitY=0;exitDx=0;exitDy=0;entryX=0.075;entryY=1;entryDx=0;entryDy=0;entryPerimeter=0;endArrow=box;endFill=0;" parent="1" source="lI8jSy1e6cQpeX_MShpy-54" target="lI8jSy1e6cQpeX_MShpy-52" edge="1">
          <mxGeometry relative="1" as="geometry" />
        </mxCell>
        <mxCell id="lI8jSy1e6cQpeX_MShpy-54" value="ФС" style="whiteSpace=wrap;html=1;aspect=fixed;" parent="1" vertex="1">
          <mxGeometry x="940" y="150" width="30" height="30" as="geometry" />
        </mxCell>
        <mxCell id="lI8jSy1e6cQpeX_MShpy-55" style="edgeStyle=orthogonalEdgeStyle;rounded=0;orthogonalLoop=1;jettySize=auto;html=1;exitX=0.5;exitY=0;exitDx=0;exitDy=0;entryX=0.548;entryY=0.996;entryDx=0;entryDy=0;entryPerimeter=0;endArrow=box;endFill=0;" parent="1" source="lI8jSy1e6cQpeX_MShpy-56" target="lI8jSy1e6cQpeX_MShpy-52" edge="1">
          <mxGeometry relative="1" as="geometry" />
        </mxCell>
        <mxCell id="lI8jSy1e6cQpeX_MShpy-56" value="PC" style="whiteSpace=wrap;html=1;aspect=fixed;" parent="1" vertex="1">
          <mxGeometry x="1050" y="150" width="30" height="30" as="geometry" />
        </mxCell>
        <mxCell id="lI8jSy1e6cQpeX_MShpy-57" style="edgeStyle=orthogonalEdgeStyle;rounded=0;orthogonalLoop=1;jettySize=auto;html=1;exitX=0.5;exitY=0;exitDx=0;exitDy=0;endArrow=box;endFill=0;" parent="1" source="lI8jSy1e6cQpeX_MShpy-58" edge="1">
          <mxGeometry relative="1" as="geometry">
            <mxPoint x="1124" y="120" as="targetPoint" />
          </mxGeometry>
        </mxCell>
        <mxCell id="lI8jSy1e6cQpeX_MShpy-58" value="PC" style="whiteSpace=wrap;html=1;aspect=fixed;" parent="1" vertex="1">
          <mxGeometry x="1109" y="150" width="30" height="30" as="geometry" />
        </mxCell>
        <mxCell id="lI8jSy1e6cQpeX_MShpy-59" value="&lt;font style=&quot;font-size: 16px;&quot;&gt;...&lt;/font&gt;" style="text;html=1;align=center;verticalAlign=middle;resizable=0;points=[];autosize=1;strokeColor=none;fillColor=none;" parent="1" vertex="1">
          <mxGeometry x="1072" y="146" width="40" height="30" as="geometry" />
        </mxCell>
        <mxCell id="lI8jSy1e6cQpeX_MShpy-60" value="" style="rounded=0;whiteSpace=wrap;html=1;fillColor=none;dashed=1;dashPattern=8 8;" parent="1" vertex="1">
          <mxGeometry x="1200" y="30" width="250" height="160" as="geometry" />
        </mxCell>
        <mxCell id="lI8jSy1e6cQpeX_MShpy-62" style="edgeStyle=orthogonalEdgeStyle;rounded=0;orthogonalLoop=1;jettySize=auto;html=1;exitX=0.5;exitY=0;exitDx=0;exitDy=0;entryX=0.075;entryY=1;entryDx=0;entryDy=0;entryPerimeter=0;endArrow=box;endFill=0;" parent="1" source="lI8jSy1e6cQpeX_MShpy-63" target="lI8jSy1e6cQpeX_MShpy-61" edge="1">
          <mxGeometry relative="1" as="geometry" />
        </mxCell>
        <mxCell id="lI8jSy1e6cQpeX_MShpy-63" value="ФС" style="whiteSpace=wrap;html=1;aspect=fixed;" parent="1" vertex="1">
          <mxGeometry x="1210" y="150" width="30" height="30" as="geometry" />
        </mxCell>
        <mxCell id="lI8jSy1e6cQpeX_MShpy-64" style="edgeStyle=orthogonalEdgeStyle;rounded=0;orthogonalLoop=1;jettySize=auto;html=1;exitX=0.5;exitY=0;exitDx=0;exitDy=0;entryX=0.548;entryY=0.996;entryDx=0;entryDy=0;entryPerimeter=0;endArrow=box;endFill=0;" parent="1" source="lI8jSy1e6cQpeX_MShpy-65" target="lI8jSy1e6cQpeX_MShpy-61" edge="1">
          <mxGeometry relative="1" as="geometry" />
        </mxCell>
        <mxCell id="lI8jSy1e6cQpeX_MShpy-65" value="PC" style="whiteSpace=wrap;html=1;aspect=fixed;" parent="1" vertex="1">
          <mxGeometry x="1320" y="150" width="30" height="30" as="geometry" />
        </mxCell>
        <mxCell id="lI8jSy1e6cQpeX_MShpy-66" style="edgeStyle=orthogonalEdgeStyle;rounded=0;orthogonalLoop=1;jettySize=auto;html=1;exitX=0.5;exitY=0;exitDx=0;exitDy=0;endArrow=box;endFill=0;" parent="1" source="lI8jSy1e6cQpeX_MShpy-67" edge="1">
          <mxGeometry relative="1" as="geometry">
            <mxPoint x="1394" y="120" as="targetPoint" />
          </mxGeometry>
        </mxCell>
        <mxCell id="lI8jSy1e6cQpeX_MShpy-67" value="PC" style="whiteSpace=wrap;html=1;aspect=fixed;" parent="1" vertex="1">
          <mxGeometry x="1379" y="150" width="30" height="30" as="geometry" />
        </mxCell>
        <mxCell id="lI8jSy1e6cQpeX_MShpy-68" value="&lt;font style=&quot;font-size: 16px;&quot;&gt;...&lt;/font&gt;" style="text;html=1;align=center;verticalAlign=middle;resizable=0;points=[];autosize=1;strokeColor=none;fillColor=none;" parent="1" vertex="1">
          <mxGeometry x="1342" y="146" width="40" height="30" as="geometry" />
        </mxCell>
        <mxCell id="lI8jSy1e6cQpeX_MShpy-69" style="edgeStyle=orthogonalEdgeStyle;rounded=0;orthogonalLoop=1;jettySize=auto;html=1;startArrow=box;startFill=0;endArrow=box;endFill=0;entryX=0.5;entryY=0;entryDx=0;entryDy=0;exitX=0.5;exitY=1;exitDx=0;exitDy=0;" parent="1" source="lI8jSy1e6cQpeX_MShpy-50" target="lI8jSy1e6cQpeX_MShpy-52" edge="1">
          <mxGeometry relative="1" as="geometry">
            <mxPoint x="780" y="-130" as="sourcePoint" />
            <mxPoint x="738" y="60" as="targetPoint" />
          </mxGeometry>
        </mxCell>
        <mxCell id="lI8jSy1e6cQpeX_MShpy-70" style="edgeStyle=orthogonalEdgeStyle;rounded=0;orthogonalLoop=1;jettySize=auto;html=1;startArrow=box;startFill=0;endArrow=box;endFill=0;entryX=0.5;entryY=0;entryDx=0;entryDy=0;exitX=0.75;exitY=1;exitDx=0;exitDy=0;" parent="1" source="lI8jSy1e6cQpeX_MShpy-50" target="lI8jSy1e6cQpeX_MShpy-61" edge="1">
          <mxGeometry relative="1" as="geometry">
            <mxPoint x="790" y="-120" as="sourcePoint" />
            <mxPoint x="748" y="70" as="targetPoint" />
          </mxGeometry>
        </mxCell>
        <mxCell id="lI8jSy1e6cQpeX_MShpy-71" value="Интернет" style="ellipse;shape=cloud;whiteSpace=wrap;html=1;" parent="1" vertex="1">
          <mxGeometry x="980" y="-340" width="120" height="80" as="geometry" />
        </mxCell>
        <mxCell id="lI8jSy1e6cQpeX_MShpy-72" value="" style="html=1;outlineConnect=0;fillColor=#CCCCCC;strokeColor=#6881B3;gradientColor=none;gradientDirection=north;strokeWidth=2;shape=mxgraph.networks.comm_link_edge;html=1;rounded=0;entryX=0.55;entryY=0.95;entryDx=0;entryDy=0;entryPerimeter=0;exitX=0.5;exitY=0;exitDx=0;exitDy=0;" parent="1" source="lI8jSy1e6cQpeX_MShpy-50" target="lI8jSy1e6cQpeX_MShpy-71" edge="1">
          <mxGeometry width="100" height="100" relative="1" as="geometry">
            <mxPoint x="840" y="-140" as="sourcePoint" />
            <mxPoint x="189" y="-194" as="targetPoint" />
          </mxGeometry>
        </mxCell>
        <mxCell id="lI8jSy1e6cQpeX_MShpy-80" style="edgeStyle=orthogonalEdgeStyle;rounded=0;orthogonalLoop=1;jettySize=auto;html=1;endArrow=none;endFill=0;" parent="1" source="lI8jSy1e6cQpeX_MShpy-84" edge="1">
          <mxGeometry relative="1" as="geometry">
            <mxPoint x="-14.75" y="615" as="targetPoint" />
            <mxPoint x="-9.75" y="653" as="sourcePoint" />
            <Array as="points">
              <mxPoint x="-66" y="630" />
              <mxPoint x="-15" y="630" />
            </Array>
          </mxGeometry>
        </mxCell>
        <mxCell id="lI8jSy1e6cQpeX_MShpy-81" style="edgeStyle=orthogonalEdgeStyle;rounded=0;orthogonalLoop=1;jettySize=auto;html=1;endArrow=none;endFill=0;exitX=0.5;exitY=0.07;exitDx=0;exitDy=0;exitPerimeter=0;" parent="1" source="lI8jSy1e6cQpeX_MShpy-85" edge="1">
          <mxGeometry relative="1" as="geometry">
            <mxPoint x="107" y="630" as="targetPoint" />
            <mxPoint x="107" y="672" as="sourcePoint" />
          </mxGeometry>
        </mxCell>
        <mxCell id="lI8jSy1e6cQpeX_MShpy-82" style="edgeStyle=orthogonalEdgeStyle;rounded=0;orthogonalLoop=1;jettySize=auto;html=1;endArrow=none;endFill=0;exitX=0.5;exitY=0.07;exitDx=0;exitDy=0;exitPerimeter=0;" parent="1" source="lI8jSy1e6cQpeX_MShpy-86" edge="1">
          <mxGeometry relative="1" as="geometry">
            <mxPoint x="166" y="630" as="targetPoint" />
            <mxPoint x="166.04761904761926" y="672" as="sourcePoint" />
            <Array as="points">
              <mxPoint x="306" y="670" />
              <mxPoint x="167" y="670" />
              <mxPoint x="167" y="630" />
            </Array>
          </mxGeometry>
        </mxCell>
        <mxCell id="lI8jSy1e6cQpeX_MShpy-79" value="&lt;font style=&quot;font-size: 64px;&quot;&gt;...&lt;/font&gt;" style="text;html=1;align=center;verticalAlign=middle;resizable=0;points=[];autosize=1;strokeColor=none;fillColor=none;" parent="1" vertex="1">
          <mxGeometry x="166" y="679.5" width="80" height="90" as="geometry" />
        </mxCell>
        <mxCell id="lI8jSy1e6cQpeX_MShpy-87" style="edgeStyle=orthogonalEdgeStyle;rounded=0;orthogonalLoop=1;jettySize=auto;html=1;endArrow=none;endFill=0;" parent="1" source="lI8jSy1e6cQpeX_MShpy-83" edge="1">
          <mxGeometry relative="1" as="geometry">
            <mxPoint x="-14" y="490" as="targetPoint" />
          </mxGeometry>
        </mxCell>
        <mxCell id="lI8jSy1e6cQpeX_MShpy-83" value="" style="fontColor=#0066CC;verticalAlign=top;verticalLabelPosition=bottom;labelPosition=center;align=center;html=1;outlineConnect=0;fillColor=#CCCCCC;strokeColor=#6881B3;gradientColor=none;gradientDirection=north;strokeWidth=2;shape=mxgraph.networks.patch_panel;" parent="1" vertex="1">
          <mxGeometry x="-64" y="434" width="100" height="35" as="geometry" />
        </mxCell>
        <mxCell id="lI8jSy1e6cQpeX_MShpy-84" value="" style="fontColor=#0066CC;verticalAlign=top;verticalLabelPosition=bottom;labelPosition=center;align=center;html=1;outlineConnect=0;fillColor=#CCCCCC;strokeColor=#6881B3;gradientColor=none;gradientDirection=north;strokeWidth=2;shape=mxgraph.networks.mail_server;" parent="1" vertex="1">
          <mxGeometry x="-121.25" y="654.5" width="105" height="105" as="geometry" />
        </mxCell>
        <mxCell id="lI8jSy1e6cQpeX_MShpy-85" value="" style="fontColor=#0066CC;verticalAlign=top;verticalLabelPosition=bottom;labelPosition=center;align=center;html=1;outlineConnect=0;fillColor=#CCCCCC;strokeColor=#6881B3;gradientColor=none;gradientDirection=north;strokeWidth=2;shape=mxgraph.networks.pc;" parent="1" vertex="1">
          <mxGeometry x="49" y="707" width="100" height="70" as="geometry" />
        </mxCell>
        <mxCell id="lI8jSy1e6cQpeX_MShpy-86" value="" style="fontColor=#0066CC;verticalAlign=top;verticalLabelPosition=bottom;labelPosition=center;align=center;html=1;outlineConnect=0;fillColor=#CCCCCC;strokeColor=#6881B3;gradientColor=none;gradientDirection=north;strokeWidth=2;shape=mxgraph.networks.pc;" parent="1" vertex="1">
          <mxGeometry x="256" y="707" width="100" height="70" as="geometry" />
        </mxCell>
        <mxCell id="lI8jSy1e6cQpeX_MShpy-89" style="edgeStyle=orthogonalEdgeStyle;rounded=0;orthogonalLoop=1;jettySize=auto;html=1;entryX=0.5;entryY=0;entryDx=0;entryDy=0;entryPerimeter=0;endArrow=none;endFill=0;" parent="1" source="lI8jSy1e6cQpeX_MShpy-88" target="lI8jSy1e6cQpeX_MShpy-83" edge="1">
          <mxGeometry relative="1" as="geometry" />
        </mxCell>
        <mxCell id="lI8jSy1e6cQpeX_MShpy-88" value="" style="fontColor=#0066CC;verticalAlign=top;verticalLabelPosition=bottom;labelPosition=center;align=center;html=1;outlineConnect=0;fillColor=#CCCCCC;strokeColor=#6881B3;gradientColor=none;gradientDirection=north;strokeWidth=2;shape=mxgraph.networks.router;" parent="1" vertex="1">
          <mxGeometry x="-64" y="370" width="100" height="30" as="geometry" />
        </mxCell>
        <mxCell id="lI8jSy1e6cQpeX_MShpy-91" value="&lt;span style=&quot;orphans: 2; text-align: center; text-indent: 0px; widows: 2; background-color: rgb(251, 251, 251); text-decoration-thickness: initial; text-decoration-style: initial; text-decoration-color: initial; float: none; display: inline !important;&quot;&gt;Удаленный&lt;br&gt;Маршрутизатор&amp;nbsp;&lt;br&gt;Cisco 7204VXR/400&lt;br&gt;&lt;/span&gt;" style="text;whiteSpace=wrap;html=1;" parent="1" vertex="1">
          <mxGeometry x="50" y="350" width="130" height="40" as="geometry" />
        </mxCell>
        <mxCell id="lI8jSy1e6cQpeX_MShpy-92" value="" style="html=1;outlineConnect=0;fillColor=#CCCCCC;strokeColor=#6881B3;gradientColor=none;gradientDirection=north;strokeWidth=2;shape=mxgraph.networks.comm_link_edge;html=1;rounded=0;exitX=0.5;exitY=0;exitDx=0;exitDy=0;exitPerimeter=0;" parent="1" source="lI8jSy1e6cQpeX_MShpy-88" edge="1">
          <mxGeometry width="100" height="100" relative="1" as="geometry">
            <mxPoint x="-20" y="350" as="sourcePoint" />
            <mxPoint y="250" as="targetPoint" />
          </mxGeometry>
        </mxCell>
        <mxCell id="lI8jSy1e6cQpeX_MShpy-93" value="&lt;div style=&quot;text-align: center;&quot;&gt;&lt;span style=&quot;background-color: initial;&quot;&gt;К ЛВС 2 и ЛВС 3&lt;/span&gt;&lt;/div&gt;" style="text;whiteSpace=wrap;html=1;" parent="1" vertex="1">
          <mxGeometry x="40" y="280" width="130" height="40" as="geometry" />
        </mxCell>
        <mxCell id="lI8jSy1e6cQpeX_MShpy-95" value="" style="group" parent="1" vertex="1" connectable="0">
          <mxGeometry x="510" y="490" width="460" height="320" as="geometry" />
        </mxCell>
        <mxCell id="lI8jSy1e6cQpeX_MShpy-105" value="" style="rounded=0;whiteSpace=wrap;html=1;fillColor=none;dashed=1;dashPattern=8 8;" parent="lI8jSy1e6cQpeX_MShpy-95" vertex="1">
          <mxGeometry x="-86" y="-250" width="526" height="550" as="geometry" />
        </mxCell>
        <mxCell id="lI8jSy1e6cQpeX_MShpy-96" value="&lt;font color=&quot;#000000&quot;&gt;Коммутатор ЛВС 2 1000 Base-TX&lt;/font&gt;" style="html=1;fillColor=#CCCCCC;strokeColor=#6881B3;gradientColor=none;gradientDirection=north;strokeWidth=2;shape=mxgraph.networks.bus;gradientColor=none;gradientDirection=north;fontColor=#ffffff;perimeter=backbonePerimeter;backboneSize=20;" parent="lI8jSy1e6cQpeX_MShpy-95" vertex="1">
          <mxGeometry y="60" width="260" height="20" as="geometry" />
        </mxCell>
        <mxCell id="lI8jSy1e6cQpeX_MShpy-97" value="" style="strokeColor=#6881B3;edgeStyle=none;rounded=0;endArrow=none;html=1;strokeWidth=2;" parent="lI8jSy1e6cQpeX_MShpy-95" target="lI8jSy1e6cQpeX_MShpy-96" edge="1">
          <mxGeometry relative="1" as="geometry">
            <mxPoint x="40" as="sourcePoint" />
          </mxGeometry>
        </mxCell>
        <mxCell id="lI8jSy1e6cQpeX_MShpy-98" value="" style="strokeColor=#6881B3;edgeStyle=none;rounded=0;endArrow=none;html=1;strokeWidth=2;" parent="lI8jSy1e6cQpeX_MShpy-95" target="lI8jSy1e6cQpeX_MShpy-96" edge="1">
          <mxGeometry relative="1" as="geometry">
            <mxPoint x="100" as="sourcePoint" />
          </mxGeometry>
        </mxCell>
        <mxCell id="lI8jSy1e6cQpeX_MShpy-99" value="" style="strokeColor=#6881B3;edgeStyle=none;rounded=0;endArrow=none;html=1;strokeWidth=2;" parent="lI8jSy1e6cQpeX_MShpy-95" target="lI8jSy1e6cQpeX_MShpy-96" edge="1">
          <mxGeometry relative="1" as="geometry">
            <mxPoint x="160" as="sourcePoint" />
          </mxGeometry>
        </mxCell>
        <mxCell id="lI8jSy1e6cQpeX_MShpy-100" value="" style="strokeColor=#6881B3;edgeStyle=none;rounded=0;endArrow=none;html=1;strokeWidth=2;" parent="lI8jSy1e6cQpeX_MShpy-95" target="lI8jSy1e6cQpeX_MShpy-96" edge="1">
          <mxGeometry relative="1" as="geometry">
            <mxPoint x="220" as="sourcePoint" />
          </mxGeometry>
        </mxCell>
        <mxCell id="lI8jSy1e6cQpeX_MShpy-101" value="" style="strokeColor=#6881B3;edgeStyle=none;rounded=0;endArrow=none;html=1;strokeWidth=2;" parent="lI8jSy1e6cQpeX_MShpy-95" target="lI8jSy1e6cQpeX_MShpy-96" edge="1">
          <mxGeometry relative="1" as="geometry">
            <mxPoint x="40" y="140" as="sourcePoint" />
          </mxGeometry>
        </mxCell>
        <mxCell id="lI8jSy1e6cQpeX_MShpy-102" value="" style="strokeColor=#6881B3;edgeStyle=none;rounded=0;endArrow=none;html=1;strokeWidth=2;" parent="lI8jSy1e6cQpeX_MShpy-95" target="lI8jSy1e6cQpeX_MShpy-96" edge="1">
          <mxGeometry relative="1" as="geometry">
            <mxPoint x="100" y="140" as="sourcePoint" />
          </mxGeometry>
        </mxCell>
        <mxCell id="lI8jSy1e6cQpeX_MShpy-103" value="" style="strokeColor=#6881B3;edgeStyle=none;rounded=0;endArrow=none;html=1;strokeWidth=2;" parent="lI8jSy1e6cQpeX_MShpy-95" target="lI8jSy1e6cQpeX_MShpy-96" edge="1">
          <mxGeometry relative="1" as="geometry">
            <mxPoint x="160" y="140" as="sourcePoint" />
          </mxGeometry>
        </mxCell>
        <mxCell id="lI8jSy1e6cQpeX_MShpy-104" value="" style="strokeColor=#6881B3;edgeStyle=none;rounded=0;endArrow=none;html=1;strokeWidth=2;" parent="lI8jSy1e6cQpeX_MShpy-95" target="lI8jSy1e6cQpeX_MShpy-96" edge="1">
          <mxGeometry relative="1" as="geometry">
            <mxPoint x="220" y="140" as="sourcePoint" />
          </mxGeometry>
        </mxCell>
        <mxCell id="lI8jSy1e6cQpeX_MShpy-112" value="" style="fontColor=#0066CC;verticalAlign=top;verticalLabelPosition=bottom;labelPosition=center;align=center;html=1;outlineConnect=0;fillColor=#CCCCCC;strokeColor=#6881B3;gradientColor=none;gradientDirection=north;strokeWidth=2;shape=mxgraph.networks.mail_server;" parent="lI8jSy1e6cQpeX_MShpy-95" vertex="1">
          <mxGeometry x="-63" y="170" width="105" height="105" as="geometry" />
        </mxCell>
        <mxCell id="XEsqgsVEjUkJumCv8vhS-2" value="HPE ProLiant DL580 Gen10" style="text;html=1;strokeColor=none;fillColor=none;align=center;verticalAlign=middle;whiteSpace=wrap;rounded=0;" vertex="1" parent="lI8jSy1e6cQpeX_MShpy-95">
          <mxGeometry x="-85" y="270" width="160" height="30" as="geometry" />
        </mxCell>
        <mxCell id="lI8jSy1e6cQpeX_MShpy-106" style="edgeStyle=orthogonalEdgeStyle;rounded=0;orthogonalLoop=1;jettySize=auto;html=1;endArrow=none;endFill=0;" parent="1" source="lI8jSy1e6cQpeX_MShpy-112" edge="1">
          <mxGeometry relative="1" as="geometry">
            <mxPoint x="550" y="630" as="targetPoint" />
            <mxPoint x="555" y="668" as="sourcePoint" />
            <Array as="points">
              <mxPoint x="499" y="650" />
              <mxPoint x="550" y="650" />
            </Array>
          </mxGeometry>
        </mxCell>
        <mxCell id="lI8jSy1e6cQpeX_MShpy-107" style="edgeStyle=orthogonalEdgeStyle;rounded=0;orthogonalLoop=1;jettySize=auto;html=1;endArrow=none;endFill=0;exitX=0.5;exitY=0.07;exitDx=0;exitDy=0;exitPerimeter=0;" parent="1" source="lI8jSy1e6cQpeX_MShpy-113" edge="1">
          <mxGeometry relative="1" as="geometry">
            <mxPoint x="671" y="630" as="targetPoint" />
            <mxPoint x="671" y="672" as="sourcePoint" />
          </mxGeometry>
        </mxCell>
        <mxCell id="lI8jSy1e6cQpeX_MShpy-108" style="edgeStyle=orthogonalEdgeStyle;rounded=0;orthogonalLoop=1;jettySize=auto;html=1;endArrow=none;endFill=0;exitX=0.5;exitY=0.07;exitDx=0;exitDy=0;exitPerimeter=0;" parent="1" source="lI8jSy1e6cQpeX_MShpy-114" edge="1">
          <mxGeometry relative="1" as="geometry">
            <mxPoint x="730" y="630" as="targetPoint" />
            <mxPoint x="730.0476190476193" y="672" as="sourcePoint" />
            <Array as="points">
              <mxPoint x="870" y="670" />
              <mxPoint x="731" y="670" />
              <mxPoint x="731" y="630" />
            </Array>
          </mxGeometry>
        </mxCell>
        <mxCell id="lI8jSy1e6cQpeX_MShpy-109" value="&lt;font style=&quot;font-size: 64px;&quot;&gt;...&lt;/font&gt;" style="text;html=1;align=center;verticalAlign=middle;resizable=0;points=[];autosize=1;strokeColor=none;fillColor=none;" parent="1" vertex="1">
          <mxGeometry x="730" y="679.5" width="80" height="90" as="geometry" />
        </mxCell>
        <mxCell id="lI8jSy1e6cQpeX_MShpy-110" style="edgeStyle=orthogonalEdgeStyle;rounded=0;orthogonalLoop=1;jettySize=auto;html=1;endArrow=none;endFill=0;" parent="1" source="lI8jSy1e6cQpeX_MShpy-111" edge="1">
          <mxGeometry relative="1" as="geometry">
            <mxPoint x="550" y="490" as="targetPoint" />
          </mxGeometry>
        </mxCell>
        <mxCell id="lI8jSy1e6cQpeX_MShpy-111" value="" style="fontColor=#0066CC;verticalAlign=top;verticalLabelPosition=bottom;labelPosition=center;align=center;html=1;outlineConnect=0;fillColor=#CCCCCC;strokeColor=#6881B3;gradientColor=none;gradientDirection=north;strokeWidth=2;shape=mxgraph.networks.patch_panel;" parent="1" vertex="1">
          <mxGeometry x="500" y="434" width="100" height="35" as="geometry" />
        </mxCell>
        <mxCell id="lI8jSy1e6cQpeX_MShpy-113" value="" style="fontColor=#0066CC;verticalAlign=top;verticalLabelPosition=bottom;labelPosition=center;align=center;html=1;outlineConnect=0;fillColor=#CCCCCC;strokeColor=#6881B3;gradientColor=none;gradientDirection=north;strokeWidth=2;shape=mxgraph.networks.pc;" parent="1" vertex="1">
          <mxGeometry x="613" y="707" width="100" height="70" as="geometry" />
        </mxCell>
        <mxCell id="lI8jSy1e6cQpeX_MShpy-114" value="" style="fontColor=#0066CC;verticalAlign=top;verticalLabelPosition=bottom;labelPosition=center;align=center;html=1;outlineConnect=0;fillColor=#CCCCCC;strokeColor=#6881B3;gradientColor=none;gradientDirection=north;strokeWidth=2;shape=mxgraph.networks.pc;" parent="1" vertex="1">
          <mxGeometry x="820" y="707" width="100" height="70" as="geometry" />
        </mxCell>
        <mxCell id="lI8jSy1e6cQpeX_MShpy-115" style="edgeStyle=orthogonalEdgeStyle;rounded=0;orthogonalLoop=1;jettySize=auto;html=1;entryX=0.5;entryY=0;entryDx=0;entryDy=0;entryPerimeter=0;endArrow=none;endFill=0;" parent="1" source="lI8jSy1e6cQpeX_MShpy-116" target="lI8jSy1e6cQpeX_MShpy-111" edge="1">
          <mxGeometry relative="1" as="geometry" />
        </mxCell>
        <mxCell id="lI8jSy1e6cQpeX_MShpy-116" value="" style="fontColor=#0066CC;verticalAlign=top;verticalLabelPosition=bottom;labelPosition=center;align=center;html=1;outlineConnect=0;fillColor=#CCCCCC;strokeColor=#6881B3;gradientColor=none;gradientDirection=north;strokeWidth=2;shape=mxgraph.networks.router;" parent="1" vertex="1">
          <mxGeometry x="500" y="370" width="100" height="30" as="geometry" />
        </mxCell>
        <mxCell id="lI8jSy1e6cQpeX_MShpy-118" value="&lt;span style=&quot;color: rgb(0, 0, 0); font-family: Helvetica; font-size: 12px; font-style: normal; font-variant-ligatures: normal; font-variant-caps: normal; font-weight: 400; letter-spacing: normal; orphans: 2; text-align: center; text-indent: 0px; text-transform: none; widows: 2; word-spacing: 0px; -webkit-text-stroke-width: 0px; background-color: rgb(251, 251, 251); text-decoration-thickness: initial; text-decoration-style: initial; text-decoration-color: initial; float: none; display: inline !important;&quot;&gt;Удаленный&lt;br&gt;Маршрутизатор&amp;nbsp;&lt;/span&gt;" style="text;whiteSpace=wrap;html=1;" parent="1" vertex="1">
          <mxGeometry x="614" y="350" width="130" height="40" as="geometry" />
        </mxCell>
        <mxCell id="lI8jSy1e6cQpeX_MShpy-119" value="" style="html=1;outlineConnect=0;fillColor=#CCCCCC;strokeColor=#6881B3;gradientColor=none;gradientDirection=north;strokeWidth=2;shape=mxgraph.networks.comm_link_edge;html=1;rounded=0;exitX=0.5;exitY=0;exitDx=0;exitDy=0;exitPerimeter=0;" parent="1" source="lI8jSy1e6cQpeX_MShpy-116" edge="1">
          <mxGeometry width="100" height="100" relative="1" as="geometry">
            <mxPoint x="544" y="350" as="sourcePoint" />
            <mxPoint x="564" y="250" as="targetPoint" />
          </mxGeometry>
        </mxCell>
        <mxCell id="lI8jSy1e6cQpeX_MShpy-120" value="&lt;div style=&quot;text-align: center;&quot;&gt;&lt;span style=&quot;background-color: initial;&quot;&gt;К ЛВС 1 и ЛВС 3&lt;/span&gt;&lt;/div&gt;" style="text;whiteSpace=wrap;html=1;" parent="1" vertex="1">
          <mxGeometry x="604" y="280" width="130" height="40" as="geometry" />
        </mxCell>
        <mxCell id="lI8jSy1e6cQpeX_MShpy-132" style="edgeStyle=orthogonalEdgeStyle;rounded=0;orthogonalLoop=1;jettySize=auto;html=1;endArrow=none;endFill=0;" parent="1" source="lI8jSy1e6cQpeX_MShpy-138" edge="1">
          <mxGeometry relative="1" as="geometry">
            <mxPoint x="1103" y="620" as="targetPoint" />
            <mxPoint x="1108" y="658" as="sourcePoint" />
            <Array as="points">
              <mxPoint x="1052" y="650" />
              <mxPoint x="1108" y="650" />
              <mxPoint x="1108" y="630" />
              <mxPoint x="1103" y="630" />
            </Array>
          </mxGeometry>
        </mxCell>
        <mxCell id="lI8jSy1e6cQpeX_MShpy-133" style="edgeStyle=orthogonalEdgeStyle;rounded=0;orthogonalLoop=1;jettySize=auto;html=1;endArrow=none;endFill=0;exitX=0.5;exitY=0.07;exitDx=0;exitDy=0;exitPerimeter=0;" parent="1" source="lI8jSy1e6cQpeX_MShpy-139" edge="1">
          <mxGeometry relative="1" as="geometry">
            <mxPoint x="1224" y="620" as="targetPoint" />
            <mxPoint x="1224" y="662" as="sourcePoint" />
          </mxGeometry>
        </mxCell>
        <mxCell id="lI8jSy1e6cQpeX_MShpy-134" style="edgeStyle=orthogonalEdgeStyle;rounded=0;orthogonalLoop=1;jettySize=auto;html=1;endArrow=none;endFill=0;exitX=0.5;exitY=0.07;exitDx=0;exitDy=0;exitPerimeter=0;" parent="1" source="lI8jSy1e6cQpeX_MShpy-140" edge="1">
          <mxGeometry relative="1" as="geometry">
            <mxPoint x="1283" y="620" as="targetPoint" />
            <mxPoint x="1283.0476190476193" y="662" as="sourcePoint" />
            <Array as="points">
              <mxPoint x="1423" y="660" />
              <mxPoint x="1284" y="660" />
              <mxPoint x="1284" y="620" />
            </Array>
          </mxGeometry>
        </mxCell>
        <mxCell id="lI8jSy1e6cQpeX_MShpy-135" value="&lt;font style=&quot;font-size: 64px;&quot;&gt;...&lt;/font&gt;" style="text;html=1;align=center;verticalAlign=middle;resizable=0;points=[];autosize=1;strokeColor=none;fillColor=none;" parent="1" vertex="1">
          <mxGeometry x="1283" y="669.5" width="80" height="90" as="geometry" />
        </mxCell>
        <mxCell id="lI8jSy1e6cQpeX_MShpy-136" style="edgeStyle=orthogonalEdgeStyle;rounded=0;orthogonalLoop=1;jettySize=auto;html=1;endArrow=none;endFill=0;" parent="1" source="lI8jSy1e6cQpeX_MShpy-137" edge="1">
          <mxGeometry relative="1" as="geometry">
            <mxPoint x="1103" y="480" as="targetPoint" />
          </mxGeometry>
        </mxCell>
        <mxCell id="lI8jSy1e6cQpeX_MShpy-137" value="" style="fontColor=#0066CC;verticalAlign=top;verticalLabelPosition=bottom;labelPosition=center;align=center;html=1;outlineConnect=0;fillColor=#CCCCCC;strokeColor=#6881B3;gradientColor=none;gradientDirection=north;strokeWidth=2;shape=mxgraph.networks.patch_panel;" parent="1" vertex="1">
          <mxGeometry x="1053" y="424" width="100" height="35" as="geometry" />
        </mxCell>
        <mxCell id="lI8jSy1e6cQpeX_MShpy-138" value="" style="fontColor=#0066CC;verticalAlign=top;verticalLabelPosition=bottom;labelPosition=center;align=center;html=1;outlineConnect=0;fillColor=#CCCCCC;strokeColor=#6881B3;gradientColor=none;gradientDirection=north;strokeWidth=2;shape=mxgraph.networks.mail_server;" parent="1" vertex="1">
          <mxGeometry x="1000" y="662" width="105" height="105" as="geometry" />
        </mxCell>
        <mxCell id="lI8jSy1e6cQpeX_MShpy-139" value="" style="fontColor=#0066CC;verticalAlign=top;verticalLabelPosition=bottom;labelPosition=center;align=center;html=1;outlineConnect=0;fillColor=#CCCCCC;strokeColor=#6881B3;gradientColor=none;gradientDirection=north;strokeWidth=2;shape=mxgraph.networks.pc;" parent="1" vertex="1">
          <mxGeometry x="1166" y="697" width="100" height="70" as="geometry" />
        </mxCell>
        <mxCell id="lI8jSy1e6cQpeX_MShpy-140" value="" style="fontColor=#0066CC;verticalAlign=top;verticalLabelPosition=bottom;labelPosition=center;align=center;html=1;outlineConnect=0;fillColor=#CCCCCC;strokeColor=#6881B3;gradientColor=none;gradientDirection=north;strokeWidth=2;shape=mxgraph.networks.pc;" parent="1" vertex="1">
          <mxGeometry x="1373" y="697" width="100" height="70" as="geometry" />
        </mxCell>
        <mxCell id="lI8jSy1e6cQpeX_MShpy-141" style="edgeStyle=orthogonalEdgeStyle;rounded=0;orthogonalLoop=1;jettySize=auto;html=1;entryX=0.5;entryY=0;entryDx=0;entryDy=0;entryPerimeter=0;endArrow=none;endFill=0;" parent="1" source="lI8jSy1e6cQpeX_MShpy-142" target="lI8jSy1e6cQpeX_MShpy-137" edge="1">
          <mxGeometry relative="1" as="geometry" />
        </mxCell>
        <mxCell id="lI8jSy1e6cQpeX_MShpy-142" value="" style="fontColor=#0066CC;verticalAlign=top;verticalLabelPosition=bottom;labelPosition=center;align=center;html=1;outlineConnect=0;fillColor=#CCCCCC;strokeColor=#6881B3;gradientColor=none;gradientDirection=north;strokeWidth=2;shape=mxgraph.networks.router;" parent="1" vertex="1">
          <mxGeometry x="1053" y="360" width="100" height="30" as="geometry" />
        </mxCell>
        <mxCell id="lI8jSy1e6cQpeX_MShpy-144" value="&lt;span style=&quot;orphans: 2; text-align: center; text-indent: 0px; widows: 2; background-color: rgb(251, 251, 251); text-decoration-thickness: initial; text-decoration-style: initial; text-decoration-color: initial; float: none; display: inline !important;&quot;&gt;Удаленный&lt;br&gt;Маршрутизатор&lt;br&gt;Cisco 7204VXR/400&lt;br&gt;&lt;/span&gt;" style="text;whiteSpace=wrap;html=1;" parent="1" vertex="1">
          <mxGeometry x="1167" y="340" width="130" height="40" as="geometry" />
        </mxCell>
        <mxCell id="lI8jSy1e6cQpeX_MShpy-145" value="" style="html=1;outlineConnect=0;fillColor=#CCCCCC;strokeColor=#6881B3;gradientColor=none;gradientDirection=north;strokeWidth=2;shape=mxgraph.networks.comm_link_edge;html=1;rounded=0;exitX=0.5;exitY=0;exitDx=0;exitDy=0;exitPerimeter=0;" parent="1" source="lI8jSy1e6cQpeX_MShpy-142" edge="1">
          <mxGeometry width="100" height="100" relative="1" as="geometry">
            <mxPoint x="1097" y="340" as="sourcePoint" />
            <mxPoint x="1117" y="240" as="targetPoint" />
          </mxGeometry>
        </mxCell>
        <mxCell id="lI8jSy1e6cQpeX_MShpy-146" value="&lt;div style=&quot;text-align: center;&quot;&gt;&lt;span style=&quot;background-color: initial;&quot;&gt;К ЛВС 1 и ЛВС 2&lt;/span&gt;&lt;/div&gt;" style="text;whiteSpace=wrap;html=1;" parent="1" vertex="1">
          <mxGeometry x="1157" y="270" width="130" height="40" as="geometry" />
        </mxCell>
        <mxCell id="4Ue4dvGPgQoIwTtvJY5z-3" value="" style="group" parent="1" vertex="1" connectable="0">
          <mxGeometry x="975" y="-140" width="160" height="70" as="geometry" />
        </mxCell>
        <mxCell id="4Ue4dvGPgQoIwTtvJY5z-5" value="" style="group" parent="4Ue4dvGPgQoIwTtvJY5z-3" vertex="1" connectable="0">
          <mxGeometry width="160" height="70" as="geometry" />
        </mxCell>
        <mxCell id="lI8jSy1e6cQpeX_MShpy-50" value="Маршрутизатор&amp;nbsp;" style="rounded=0;whiteSpace=wrap;html=1;" parent="4Ue4dvGPgQoIwTtvJY5z-5" vertex="1">
          <mxGeometry width="160" height="70" as="geometry" />
        </mxCell>
        <mxCell id="4Ue4dvGPgQoIwTtvJY5z-2" value="&lt;font style=&quot;font-size: 8px;&quot;&gt;Cisco 7204VXR/400&lt;/font&gt;" style="text;html=1;strokeColor=none;fillColor=none;align=center;verticalAlign=middle;whiteSpace=wrap;rounded=0;" parent="4Ue4dvGPgQoIwTtvJY5z-5" vertex="1">
          <mxGeometry x="57" y="49" width="103" height="17" as="geometry" />
        </mxCell>
        <mxCell id="4Ue4dvGPgQoIwTtvJY5z-7" value="" style="group" parent="1" vertex="1" connectable="0">
          <mxGeometry x="670" y="50" width="230" height="70" as="geometry" />
        </mxCell>
        <mxCell id="lI8jSy1e6cQpeX_MShpy-41" value="Коммутатор ЛВС 1&lt;br&gt;10G Base SR" style="rounded=0;whiteSpace=wrap;html=1;" parent="4Ue4dvGPgQoIwTtvJY5z-7" vertex="1">
          <mxGeometry width="230" height="70" as="geometry" />
        </mxCell>
        <mxCell id="4Ue4dvGPgQoIwTtvJY5z-6" value="Planet SGS-6341-16S8C4XR" style="text;whiteSpace=wrap;fontSize=8;" parent="4Ue4dvGPgQoIwTtvJY5z-7" vertex="1">
          <mxGeometry x="120" y="50" width="110" height="20" as="geometry" />
        </mxCell>
        <mxCell id="4Ue4dvGPgQoIwTtvJY5z-10" value="" style="group" parent="1" vertex="1" connectable="0">
          <mxGeometry x="1210" y="50" width="230" height="70" as="geometry" />
        </mxCell>
        <mxCell id="lI8jSy1e6cQpeX_MShpy-61" value="Коммутатор ЛВС 3&lt;br style=&quot;border-color: var(--border-color);&quot;&gt;100 Base TX" style="rounded=0;whiteSpace=wrap;html=1;" parent="4Ue4dvGPgQoIwTtvJY5z-10" vertex="1">
          <mxGeometry width="230" height="70" as="geometry" />
        </mxCell>
        <mxCell id="4Ue4dvGPgQoIwTtvJY5z-9" value="OSNOVO SW-7042" style="text;whiteSpace=wrap;fontSize=8;" parent="4Ue4dvGPgQoIwTtvJY5z-10" vertex="1">
          <mxGeometry x="150" y="50" width="80" height="20" as="geometry" />
        </mxCell>
        <mxCell id="4Ue4dvGPgQoIwTtvJY5z-11" value="" style="group" parent="1" vertex="1" connectable="0">
          <mxGeometry x="940" y="50" width="230" height="70" as="geometry" />
        </mxCell>
        <mxCell id="lI8jSy1e6cQpeX_MShpy-52" value="Коммутатор ЛВС 2&lt;br style=&quot;border-color: var(--border-color);&quot;&gt;1000 Base TX" style="rounded=0;whiteSpace=wrap;html=1;" parent="4Ue4dvGPgQoIwTtvJY5z-11" vertex="1">
          <mxGeometry width="230" height="70" as="geometry" />
        </mxCell>
        <mxCell id="4Ue4dvGPgQoIwTtvJY5z-8" value="OSNOVO SW-7042" style="text;whiteSpace=wrap;fontSize=8;" parent="4Ue4dvGPgQoIwTtvJY5z-11" vertex="1">
          <mxGeometry x="149" y="50" width="80" height="20" as="geometry" />
        </mxCell>
        <mxCell id="lI8jSy1e6cQpeX_MShpy-143" value="Коммутатор ЛВС 3&lt;br style=&quot;border-color: var(--border-color); text-align: center;&quot;&gt;100 Base-TX&lt;br&gt;&lt;span style=&quot;text-align: center;&quot;&gt;OSNOVO SW-7042&lt;br&gt;&lt;/span&gt;" style="text;whiteSpace=wrap;html=1;" parent="1" vertex="1">
          <mxGeometry x="1169" y="414" width="140" height="50" as="geometry" />
        </mxCell>
        <mxCell id="lI8jSy1e6cQpeX_MShpy-117" value="Коммутатор ЛВС 2&lt;br style=&quot;border-color: var(--border-color); text-align: center;&quot;&gt;1000 Base-TX&lt;br&gt;&lt;span style=&quot;text-align: center;&quot;&gt;OSNOVO SW-7042&lt;br&gt;&lt;/span&gt;" style="text;whiteSpace=wrap;html=1;" parent="1" vertex="1">
          <mxGeometry x="617" y="420" width="140" height="50" as="geometry" />
        </mxCell>
        <mxCell id="lI8jSy1e6cQpeX_MShpy-90" value="&lt;span style=&quot;color: rgb(0, 0, 0); font-family: Helvetica; font-size: 12px; font-style: normal; font-variant-ligatures: normal; font-variant-caps: normal; font-weight: 400; letter-spacing: normal; orphans: 2; text-align: center; text-indent: 0px; text-transform: none; widows: 2; word-spacing: 0px; -webkit-text-stroke-width: 0px; background-color: rgb(251, 251, 251); text-decoration-thickness: initial; text-decoration-style: initial; text-decoration-color: initial; float: none; display: inline !important;&quot;&gt;Коммутатор ЛВС 1&lt;/span&gt;&lt;br style=&quot;border-color: var(--border-color); color: rgb(0, 0, 0); font-family: Helvetica; font-size: 12px; font-style: normal; font-variant-ligatures: normal; font-variant-caps: normal; font-weight: 400; letter-spacing: normal; orphans: 2; text-align: center; text-indent: 0px; text-transform: none; widows: 2; word-spacing: 0px; -webkit-text-stroke-width: 0px; background-color: rgb(251, 251, 251); text-decoration-thickness: initial; text-decoration-style: initial; text-decoration-color: initial;&quot;&gt;&lt;span style=&quot;orphans: 2; text-align: center; text-indent: 0px; widows: 2; background-color: rgb(251, 251, 251); text-decoration-thickness: initial; text-decoration-style: initial; text-decoration-color: initial; float: none; display: inline !important;&quot;&gt;10G Base-SR&lt;br&gt;Planet SGS-6341-16S8C4XR&lt;br&gt;&lt;/span&gt;" style="text;whiteSpace=wrap;html=1;" parent="1" vertex="1">
          <mxGeometry x="50" y="420" width="180" height="50" as="geometry" />
        </mxCell>
        <mxCell id="lI8jSy1e6cQpeX_MShpy-23" value="&lt;font color=&quot;#000000&quot;&gt;ЛВС 10G Base-SR&lt;/font&gt;" style="html=1;fillColor=#CCCCCC;strokeColor=#6881B3;gradientColor=none;gradientDirection=north;strokeWidth=2;shape=mxgraph.networks.bus;gradientColor=none;gradientDirection=north;fontColor=#ffffff;perimeter=backbonePerimeter;backboneSize=20;" parent="1" vertex="1">
          <mxGeometry x="-54" y="550" width="260" height="20" as="geometry" />
        </mxCell>
        <mxCell id="lI8jSy1e6cQpeX_MShpy-24" value="" style="strokeColor=#6881B3;edgeStyle=none;rounded=0;endArrow=none;html=1;strokeWidth=2;" parent="1" target="lI8jSy1e6cQpeX_MShpy-23" edge="1">
          <mxGeometry relative="1" as="geometry">
            <mxPoint x="-14" y="490" as="sourcePoint" />
          </mxGeometry>
        </mxCell>
        <mxCell id="lI8jSy1e6cQpeX_MShpy-25" value="" style="strokeColor=#6881B3;edgeStyle=none;rounded=0;endArrow=none;html=1;strokeWidth=2;" parent="1" target="lI8jSy1e6cQpeX_MShpy-23" edge="1">
          <mxGeometry relative="1" as="geometry">
            <mxPoint x="46" y="490" as="sourcePoint" />
          </mxGeometry>
        </mxCell>
        <mxCell id="lI8jSy1e6cQpeX_MShpy-26" value="" style="strokeColor=#6881B3;edgeStyle=none;rounded=0;endArrow=none;html=1;strokeWidth=2;" parent="1" target="lI8jSy1e6cQpeX_MShpy-23" edge="1">
          <mxGeometry relative="1" as="geometry">
            <mxPoint x="106" y="490" as="sourcePoint" />
          </mxGeometry>
        </mxCell>
        <mxCell id="lI8jSy1e6cQpeX_MShpy-27" value="" style="strokeColor=#6881B3;edgeStyle=none;rounded=0;endArrow=none;html=1;strokeWidth=2;" parent="1" target="lI8jSy1e6cQpeX_MShpy-23" edge="1">
          <mxGeometry relative="1" as="geometry">
            <mxPoint x="166" y="490" as="sourcePoint" />
          </mxGeometry>
        </mxCell>
        <mxCell id="lI8jSy1e6cQpeX_MShpy-28" value="" style="strokeColor=#6881B3;edgeStyle=none;rounded=0;endArrow=none;html=1;strokeWidth=2;" parent="1" target="lI8jSy1e6cQpeX_MShpy-23" edge="1">
          <mxGeometry relative="1" as="geometry">
            <mxPoint x="-14" y="630" as="sourcePoint" />
          </mxGeometry>
        </mxCell>
        <mxCell id="lI8jSy1e6cQpeX_MShpy-29" value="" style="strokeColor=#6881B3;edgeStyle=none;rounded=0;endArrow=none;html=1;strokeWidth=2;" parent="1" target="lI8jSy1e6cQpeX_MShpy-23" edge="1">
          <mxGeometry relative="1" as="geometry">
            <mxPoint x="46" y="630" as="sourcePoint" />
          </mxGeometry>
        </mxCell>
        <mxCell id="lI8jSy1e6cQpeX_MShpy-30" value="" style="strokeColor=#6881B3;edgeStyle=none;rounded=0;endArrow=none;html=1;strokeWidth=2;" parent="1" target="lI8jSy1e6cQpeX_MShpy-23" edge="1">
          <mxGeometry relative="1" as="geometry">
            <mxPoint x="106" y="630" as="sourcePoint" />
          </mxGeometry>
        </mxCell>
        <mxCell id="lI8jSy1e6cQpeX_MShpy-31" value="" style="strokeColor=#6881B3;edgeStyle=none;rounded=0;endArrow=none;html=1;strokeWidth=2;" parent="1" target="lI8jSy1e6cQpeX_MShpy-23" edge="1">
          <mxGeometry relative="1" as="geometry">
            <mxPoint x="166" y="630" as="sourcePoint" />
          </mxGeometry>
        </mxCell>
        <mxCell id="lI8jSy1e6cQpeX_MShpy-122" value="" style="rounded=0;whiteSpace=wrap;html=1;fillColor=none;dashed=1;dashPattern=8 8;" parent="1" vertex="1">
          <mxGeometry x="977" y="230" width="526" height="560" as="geometry" />
        </mxCell>
        <mxCell id="lI8jSy1e6cQpeX_MShpy-123" value="&lt;font color=&quot;#000000&quot;&gt;Коммутатор ЛВС 3 100 Base-TX&lt;/font&gt;" style="html=1;fillColor=#CCCCCC;strokeColor=#6881B3;gradientColor=none;gradientDirection=north;strokeWidth=2;shape=mxgraph.networks.bus;gradientColor=none;gradientDirection=north;fontColor=#ffffff;perimeter=backbonePerimeter;backboneSize=20;" parent="1" vertex="1">
          <mxGeometry x="1063" y="540" width="260" height="20" as="geometry" />
        </mxCell>
        <mxCell id="lI8jSy1e6cQpeX_MShpy-124" value="" style="strokeColor=#6881B3;edgeStyle=none;rounded=0;endArrow=none;html=1;strokeWidth=2;" parent="1" target="lI8jSy1e6cQpeX_MShpy-123" edge="1">
          <mxGeometry relative="1" as="geometry">
            <mxPoint x="1103" y="480" as="sourcePoint" />
          </mxGeometry>
        </mxCell>
        <mxCell id="lI8jSy1e6cQpeX_MShpy-125" value="" style="strokeColor=#6881B3;edgeStyle=none;rounded=0;endArrow=none;html=1;strokeWidth=2;" parent="1" target="lI8jSy1e6cQpeX_MShpy-123" edge="1">
          <mxGeometry relative="1" as="geometry">
            <mxPoint x="1163" y="480" as="sourcePoint" />
          </mxGeometry>
        </mxCell>
        <mxCell id="lI8jSy1e6cQpeX_MShpy-126" value="" style="strokeColor=#6881B3;edgeStyle=none;rounded=0;endArrow=none;html=1;strokeWidth=2;" parent="1" target="lI8jSy1e6cQpeX_MShpy-123" edge="1">
          <mxGeometry relative="1" as="geometry">
            <mxPoint x="1223" y="480" as="sourcePoint" />
          </mxGeometry>
        </mxCell>
        <mxCell id="lI8jSy1e6cQpeX_MShpy-127" value="" style="strokeColor=#6881B3;edgeStyle=none;rounded=0;endArrow=none;html=1;strokeWidth=2;" parent="1" target="lI8jSy1e6cQpeX_MShpy-123" edge="1">
          <mxGeometry relative="1" as="geometry">
            <mxPoint x="1283" y="480" as="sourcePoint" />
          </mxGeometry>
        </mxCell>
        <mxCell id="lI8jSy1e6cQpeX_MShpy-128" value="" style="strokeColor=#6881B3;edgeStyle=none;rounded=0;endArrow=none;html=1;strokeWidth=2;" parent="1" target="lI8jSy1e6cQpeX_MShpy-123" edge="1">
          <mxGeometry relative="1" as="geometry">
            <mxPoint x="1103" y="620" as="sourcePoint" />
          </mxGeometry>
        </mxCell>
        <mxCell id="lI8jSy1e6cQpeX_MShpy-129" value="" style="strokeColor=#6881B3;edgeStyle=none;rounded=0;endArrow=none;html=1;strokeWidth=2;" parent="1" target="lI8jSy1e6cQpeX_MShpy-123" edge="1">
          <mxGeometry relative="1" as="geometry">
            <mxPoint x="1163" y="620" as="sourcePoint" />
          </mxGeometry>
        </mxCell>
        <mxCell id="lI8jSy1e6cQpeX_MShpy-130" value="" style="strokeColor=#6881B3;edgeStyle=none;rounded=0;endArrow=none;html=1;strokeWidth=2;" parent="1" target="lI8jSy1e6cQpeX_MShpy-123" edge="1">
          <mxGeometry relative="1" as="geometry">
            <mxPoint x="1223" y="620" as="sourcePoint" />
          </mxGeometry>
        </mxCell>
        <mxCell id="lI8jSy1e6cQpeX_MShpy-131" value="" style="strokeColor=#6881B3;edgeStyle=none;rounded=0;endArrow=none;html=1;strokeWidth=2;" parent="1" target="lI8jSy1e6cQpeX_MShpy-123" edge="1">
          <mxGeometry relative="1" as="geometry">
            <mxPoint x="1283" y="620" as="sourcePoint" />
          </mxGeometry>
        </mxCell>
        <mxCell id="XEsqgsVEjUkJumCv8vhS-1" value="HPE ProLiant DL580 Gen10" style="text;html=1;strokeColor=none;fillColor=none;align=center;verticalAlign=middle;whiteSpace=wrap;rounded=0;" vertex="1" parent="1">
          <mxGeometry x="-140" y="759.5" width="160" height="30" as="geometry" />
        </mxCell>
        <mxCell id="XEsqgsVEjUkJumCv8vhS-3" value="HPE ProLiant DL580 Gen10" style="text;html=1;strokeColor=none;fillColor=none;align=center;verticalAlign=middle;whiteSpace=wrap;rounded=0;" vertex="1" parent="1">
          <mxGeometry x="985" y="759.5" width="160" height="30" as="geometry" />
        </mxCell>
      </root>
    </mxGraphModel>
  </diagram>
</mxfile>
